run/b06_dumpports.vcd
$comment
	File created using the following command:
		vcd file b06_dumpports.vcd -dumpports
$end
$date
	Sun Nov 21 12:31:04 2021
$end
$version
	dumpports QuestaSim Version 10.5c_4
$end
$timescale
	1ns
$end

$scope module b06_testbench $end

$scope module dut $end
$var port [2:1] <0 cc_mux $end
$var port [2:1] <1 uscite $end
$var port 1 <2 eql $end
$var port 1 <3 clock $end
$var port 1 <4 reset $end
$var port 1 <5 cont_eql $end
$var port 1 <6 test_si $end
$var port 1 <7 test_se $end
$var port 1 <8 enable_count $end
$var port 1 <9 ackout $end
$upscope $end
$upscope $end
$enddefinitions $end
#0
$dumpports
pD 6 0 <2
pD 6 0 <3
pX 6 6 <8
pX 6 6 <9
pD 6 0 <4
pU 0 6 <5
pD 6 0 <6
pD 6 0 <7
pXX 66 66 <0 
pXX 66 66 <1 
$end
#50
pU 0 6 <4
pL 6 0 <8
pL 6 0 <9
pLL 66 00 <1 
pLL 66 00 <0 
#80
pD 6 0 <4
#100
pD 6 0 <5
pU 0 6 <2
#150
pU 0 6 <3
pH 0 6 <8
pH 0 6 <9
pLH 60 06 <1 
pLH 60 06 <0 
#180
pD 6 0 <3
#200
pU 0 6 <5
pD 6 0 <2
#250
pU 0 6 <3
pL 6 0 <8
pL 6 0 <9
pHL 06 60 <0 
#280
pD 6 0 <3
#300
pD 6 0 <5
pU 0 6 <2
#350
pU 0 6 <3
pH 0 6 <8
pH 0 6 <9
pLL 66 00 <1 
pHH 00 66 <0 
#380
pD 6 0 <3
#400
pU 0 6 <5
pD 6 0 <2
#450
pU 0 6 <3
pL 6 0 <8
pL 6 0 <9
pHH 00 66 <1 
pHL 06 60 <0 
#480
pD 6 0 <3
#500
pD 6 0 <5
pU 0 6 <2
#550
pU 0 6 <3
pH 0 6 <8
pH 0 6 <9
#580
pD 6 0 <3
#600
pU 0 6 <5
pD 6 0 <2
#650
pU 0 6 <3
pL 6 0 <8
pL 6 0 <9
pLH 60 06 <1 
pLH 60 06 <0 
#680
pD 6 0 <3
#700
pD 6 0 <5
pU 0 6 <2
#750
pU 0 6 <3
pH 0 6 <8
pH 0 6 <9
pLL 66 00 <1 
pHH 00 66 <0 
#780
pD 6 0 <3
#800
pU 0 6 <5
pD 6 0 <2
#850
pU 0 6 <3
pLH 60 06 <1 
pLH 60 06 <0 
#880
pD 6 0 <3
#900
pD 6 0 <5
pU 0 6 <2
#950
pU 0 6 <3
#980
pD 6 0 <3
#1000
pU 0 6 <5
pD 6 0 <2
#1050
pU 0 6 <3
pL 6 0 <8
pL 6 0 <9
#1080
pD 6 0 <3
#1100
pD 6 0 <5
pU 0 6 <2
#1150
pU 0 6 <3
pH 0 6 <8
pH 0 6 <9
pLL 66 00 <1 
pHH 00 66 <0 
#1180
pD 6 0 <3
#1200
pU 0 6 <5
pD 6 0 <2
#1250
pU 0 6 <3
pLH 60 06 <1 
pLH 60 06 <0 
#1280
pD 6 0 <3
#1300
pD 6 0 <5
pU 0 6 <2
#1350
pU 0 6 <3
#1380
pD 6 0 <3
#1400
pU 0 6 <5
pD 6 0 <2
#1450
pU 0 6 <3
pL 6 0 <8
pL 6 0 <9
#1480
pD 6 0 <3
#1500
pD 6 0 <5
pU 0 6 <2
#1550
pU 0 6 <3
pH 0 6 <8
pH 0 6 <9
pLL 66 00 <1 
pHH 00 66 <0 
#1580
pD 6 0 <3
#1600
pU 0 6 <5
#1650
pU 0 6 <3
pL 6 0 <8
pL 6 0 <9
#1680
pD 6 0 <3
#1750
pU 0 6 <3
#1780
pD 6 0 <3
#1800
pD 6 0 <2
#1850
pU 0 6 <3
pH 0 6 <8
pH 0 6 <9
pLH 60 06 <1 
pLH 60 06 <0 
#1880
pD 6 0 <3
#1900
pD 6 0 <5
#1950
pU 0 6 <3
#1980
pD 6 0 <3
#2000
pU 0 6 <2
#2050
pU 0 6 <3
pLL 66 00 <1 
pHH 00 66 <0 
#2080
pD 6 0 <3
#2100
pU 0 6 <5
pD 6 0 <2
#2150
pU 0 6 <3
pLH 60 06 <1 
pLH 60 06 <0 
#2180
pD 6 0 <3
#2200
pD 6 0 <5
pU 0 6 <2
#2250
pU 0 6 <3
#2280
pD 6 0 <3
#2300
pU 0 6 <5
#2350
pU 0 6 <3
pL 6 0 <8
pL 6 0 <9
#2380
pD 6 0 <3
#2450
pU 0 6 <3
#2480
pD 6 0 <3
#2500
pD 6 0 <2
#2550
pU 0 6 <3
#2580
pD 6 0 <3
#2600
pD 6 0 <5
#2650
pU 0 6 <3
pH 0 6 <8
pH 0 6 <9
pHL 06 60 <0 
#2680
pD 6 0 <3
#2700
pU 0 6 <2
#2750
pU 0 6 <3
pLL 66 00 <1 
pHH 00 66 <0 
#2780
pD 6 0 <3
#2800
pU 0 6 <5
pD 6 0 <2
#2850
pU 0 6 <3
pL 6 0 <8
pL 6 0 <9
pHH 00 66 <1 
pHL 06 60 <0 
#2880
pD 6 0 <3
#2900
pD 6 0 <5
#2950
pU 0 6 <3
pH 0 6 <8
pH 0 6 <9
pLH 60 06 <1 
pLH 60 06 <0 
#2980
pD 6 0 <3
#3050
pU 0 6 <3
pHL 06 60 <0 
#3080
pD 6 0 <3
#3100
pU 0 6 <2
#3150
pU 0 6 <3
pLL 66 00 <1 
pHH 00 66 <0 
#3180
pD 6 0 <3
#3200
pU 0 6 <5
pD 6 0 <2
#3250
pU 0 6 <3
pL 6 0 <8
pL 6 0 <9
pHH 00 66 <1 
pHL 06 60 <0 
#3280
pD 6 0 <3
#3300
pD 6 0 <5
pU 0 6 <2
#3350
pU 0 6 <3
pH 0 6 <8
pH 0 6 <9
#3380
pD 6 0 <3
#3400
pU 0 6 <5
pD 6 0 <2
#3450
pU 0 6 <3
pL 6 0 <8
pL 6 0 <9
pLH 60 06 <1 
pLH 60 06 <0 
#3480
pD 6 0 <3
#3500
pD 6 0 <5
pU 0 6 <2
#3550
pU 0 6 <3
pH 0 6 <8
pH 0 6 <9
pLL 66 00 <1 
pHH 00 66 <0 
#3580
pD 6 0 <3
#3600
pU 0 6 <5
pD 6 0 <2
#3650
pU 0 6 <3
pLH 60 06 <1 
pLH 60 06 <0 
#3680
pD 6 0 <3
#3700
pD 6 0 <5
#3750
pU 0 6 <3
#3780
pD 6 0 <3
#3850
pU 0 6 <3
pHL 06 60 <0 
#3880
pD 6 0 <3
#3950
pU 0 6 <3
pLH 60 06 <0 
#3980
pD 6 0 <3
#4050
pU 0 6 <3
pHL 06 60 <0 
#4080
pD 6 0 <3
#4100
pU 0 6 <2
#4150
pU 0 6 <3
pLL 66 00 <1 
pHH 00 66 <0 
#4180
pD 6 0 <3
#4200
pU 0 6 <5
#4250
pU 0 6 <3
pL 6 0 <8
pL 6 0 <9
#4280
pD 6 0 <3
#4300
pD 6 0 <2
#4350
pU 0 6 <3
pHH 00 66 <1 
pHL 06 60 <0 
#4380
pD 6 0 <3
#4400
pD 6 0 <5
pU 0 6 <2
#4450
pU 0 6 <3
pH 0 6 <8
pH 0 6 <9
#4480
pD 6 0 <3
#4500
pU 0 6 <5
pD 6 0 <2
#4550
pU 0 6 <3
pL 6 0 <8
pL 6 0 <9
pLH 60 06 <1 
pLH 60 06 <0 
#4580
pD 6 0 <3
#4600
pD 6 0 <5
pU 0 6 <2
#4650
pU 0 6 <3
pH 0 6 <8
pH 0 6 <9
pLL 66 00 <1 
pHH 00 66 <0 
#4680
pD 6 0 <3
#4700
pU 0 6 <5
#4750
pU 0 6 <3
pL 6 0 <8
pL 6 0 <9
#4780
pD 6 0 <3
#4850
pU 0 6 <3
#4880
pD 6 0 <3
#4900
pD 6 0 <2
#4950
pU 0 6 <3
pH 0 6 <8
pH 0 6 <9
pLH 60 06 <1 
pLH 60 06 <0 
#4980
pD 6 0 <3
#5000
pD 6 0 <5
pU 0 6 <2
#5050
pU 0 6 <3
#5080
pD 6 0 <3
#5100
pU 0 6 <5
pD 6 0 <2
#5150
pU 0 6 <3
pL 6 0 <8
pL 6 0 <9
#5180
pD 6 0 <3
#5200
pD 6 0 <5
pU 0 6 <2
#5250
pU 0 6 <3
pH 0 6 <8
pH 0 6 <9
pLL 66 00 <1 
pHH 00 66 <0 
#5280
pD 6 0 <3
#5300
pU 0 6 <5
#5350
pU 0 6 <3
pL 6 0 <8
pL 6 0 <9
#5380
pD 6 0 <3
#5400
pD 6 0 <2
#5450
pU 0 6 <3
pH 0 6 <8
pH 0 6 <9
pLH 60 06 <1 
pLH 60 06 <0 
#5480
pD 6 0 <3
#5500
pD 6 0 <5
#5550
pU 0 6 <3
#5580
pD 6 0 <3
#5600
pU 0 6 <2
#5650
pU 0 6 <3
pLL 66 00 <1 
pHH 00 66 <0 
#5680
pD 6 0 <3
#5700
pU 0 6 <5
#5750
pU 0 6 <3
pL 6 0 <8
pL 6 0 <9
#5780
pD 6 0 <3
#5850
pU 0 6 <3
#5880
pD 6 0 <3
#5900
pD 6 0 <2
#5950
pU 0 6 <3
pH 0 6 <8
pH 0 6 <9
pLH 60 06 <1 
pLH 60 06 <0 
#5980
pD 6 0 <3
#6000
pD 6 0 <5
pU 0 6 <2
#6050
pU 0 6 <3
#6080
pD 6 0 <3
#6100
pU 0 6 <5
pD 6 0 <2
#6150
pU 0 6 <3
pL 6 0 <8
pL 6 0 <9
#6180
pD 6 0 <3
#6200
pD 6 0 <5
#6250
pU 0 6 <3
pH 0 6 <8
pH 0 6 <9
pHL 06 60 <0 
#6280
pD 6 0 <3
#6350
pU 0 6 <3
pLH 60 06 <0 
#6380
pD 6 0 <3
#6450
pU 0 6 <3
pHL 06 60 <0 
#6480
pD 6 0 <3
#6550
pU 0 6 <3
pLH 60 06 <0 
#6580
pD 6 0 <3
#6600
pU 0 6 <2
#6650
pU 0 6 <3
pLL 66 00 <1 
pHH 00 66 <0 
#6680
pD 6 0 <3
#6700
pU 0 6 <5
pD 6 0 <2
#6750
pU 0 6 <3
pLH 60 06 <1 
pLH 60 06 <0 
#6780
pD 6 0 <3
#6800
pD 6 0 <5
pU 0 6 <2
#6850
pU 0 6 <3
#6880
pD 6 0 <3
#6900
pU 0 6 <5
#6950
pU 0 6 <3
pL 6 0 <8
pL 6 0 <9
#6980
pD 6 0 <3
#7050
pU 0 6 <3
#7080
pD 6 0 <3
#7150
pU 0 6 <3
#7180
pD 6 0 <3
#7250
pU 0 6 <3
#7280
pD 6 0 <3
#7350
pU 0 6 <3
#7380
pD 6 0 <3
#7400
pD 6 0 <2
#7450
pU 0 6 <3
#7480
pD 6 0 <3
#7500
pD 6 0 <5
pU 0 6 <2
#7550
pU 0 6 <3
pH 0 6 <8
pH 0 6 <9
pLL 66 00 <1 
pHH 00 66 <0 
#7580
pD 6 0 <3
#7600
pU 0 6 <5
pD 6 0 <2
#7650
pU 0 6 <3
pLH 60 06 <1 
pLH 60 06 <0 
#7680
pD 6 0 <3
#7700
pD 6 0 <5
pU 0 6 <2
#7750
pU 0 6 <3
#7780
pD 6 0 <3
#7800
pU 0 6 <5
#7850
pU 0 6 <3
pL 6 0 <8
pL 6 0 <9
#7880
pD 6 0 <3
#7900
pD 6 0 <2
#7950
pU 0 6 <3
#7980
pD 6 0 <3
#8000
pD 6 0 <5
pU 0 6 <2
#8050
pU 0 6 <3
pH 0 6 <8
pH 0 6 <9
pLL 66 00 <1 
pHH 00 66 <0 
#8080
pD 6 0 <3
#8100
pU 0 6 <5
#8150
pU 0 6 <3
pL 6 0 <8
pL 6 0 <9
#8180
pD 6 0 <3
#8200
pD 6 0 <2
#8250
pU 0 6 <3
pH 0 6 <8
pH 0 6 <9
pLH 60 06 <1 
pLH 60 06 <0 
#8280
pD 6 0 <3
#8300
pD 6 0 <5
pU 0 6 <2
#8350
pU 0 6 <3
#8380
pD 6 0 <3
#8400
pU 0 6 <5
#8450
pU 0 6 <3
pL 6 0 <8
pL 6 0 <9
#8480
pD 6 0 <3
#8550
pU 0 6 <3
#8580
pD 6 0 <3
#8600
pD 6 0 <2
#8650
pU 0 6 <3
#8680
pD 6 0 <3
#8700
pD 6 0 <5
pU 0 6 <2
#8750
pU 0 6 <3
pH 0 6 <8
pH 0 6 <9
pLL 66 00 <1 
pHH 00 66 <0 
#8780
pD 6 0 <3
#8800
pU 0 6 <5
pD 6 0 <2
#8850
pU 0 6 <3
pLH 60 06 <1 
pLH 60 06 <0 
#8880
pD 6 0 <3
#8900
pD 6 0 <5
pU 0 6 <2
#8950
pU 0 6 <3
#8980
pD 6 0 <3
#9000
pU 0 6 <5
#9050
pU 0 6 <3
pL 6 0 <8
pL 6 0 <9
#9080
pD 6 0 <3
#9100
pD 6 0 <2
#9150
pU 0 6 <3
#9180
pD 6 0 <3
#9200
pD 6 0 <5
#9250
pU 0 6 <3
pH 0 6 <8
pH 0 6 <9
pHL 06 60 <0 
#9280
pD 6 0 <3
#9350
pU 0 6 <3
pLH 60 06 <0 
#9380
pD 6 0 <3
#9400
pU 0 6 <2
#9450
pU 0 6 <3
pLL 66 00 <1 
pHH 00 66 <0 
#9480
pD 6 0 <3
#9500
pU 0 6 <5
pD 6 0 <2
#9550
pU 0 6 <3
pLH 60 06 <1 
pLH 60 06 <0 
#9580
pD 6 0 <3
#9600
pD 6 0 <5
#9650
pU 0 6 <3
#9680
pD 6 0 <3
#9750
pU 0 6 <3
pHL 06 60 <0 
#9780
pD 6 0 <3
#9800
pU 0 6 <2
#9850
pU 0 6 <3
pLL 66 00 <1 
pHH 00 66 <0 
#9880
pD 6 0 <3
#9900
pU 0 6 <5
#9950
pU 0 6 <3
pL 6 0 <8
pL 6 0 <9
#9980
pD 6 0 <3
#10000
pD 6 0 <2
#10050
pU 0 6 <3
pHH 00 66 <1 
pHL 06 60 <0 
#10080
pD 6 0 <3
#10100
pD 6 0 <5
#10150
pU 0 6 <3
pH 0 6 <8
pH 0 6 <9
pLH 60 06 <1 
pLH 60 06 <0 
#10180
pD 6 0 <3
#10200
pU 0 6 <2
#10250
pU 0 6 <3
pLL 66 00 <1 
pHH 00 66 <0 
#10280
pD 6 0 <3
#10300
pU 0 6 <5
#10350
pU 0 6 <3
pL 6 0 <8
pL 6 0 <9
#10380
pD 6 0 <3
#10450
pU 0 6 <3
#10480
pD 6 0 <3
#10500
pD 6 0 <2
#10550
pU 0 6 <3
pH 0 6 <8
pH 0 6 <9
pLH 60 06 <1 
pLH 60 06 <0 
#10580
pD 6 0 <3
#10600
pD 6 0 <5
pU 0 6 <2
#10650
pU 0 6 <3
#10680
pD 6 0 <3
#10700
pU 0 6 <5
pD 6 0 <2
#10750
pU 0 6 <3
pL 6 0 <8
pL 6 0 <9
#10780
pD 6 0 <3
#10800
pD 6 0 <5
#10850
pU 0 6 <3
pH 0 6 <8
pH 0 6 <9
pHL 06 60 <0 
#10880
pD 6 0 <3
#10950
pU 0 6 <3
pLH 60 06 <0 
#10980
pD 6 0 <3
#11000
pU 0 6 <2
#11050
pU 0 6 <3
pLL 66 00 <1 
pHH 00 66 <0 
#11080
pD 6 0 <3
#11100
pU 0 6 <5
#11150
pU 0 6 <3
pL 6 0 <8
pL 6 0 <9
#11180
pD 6 0 <3
#11250
pU 0 6 <3
#11280
pD 6 0 <3
#11300
pD 6 0 <2
#11350
pU 0 6 <3
pH 0 6 <8
pH 0 6 <9
pLH 60 06 <1 
pLH 60 06 <0 
#11380
pD 6 0 <3
#11400
pD 6 0 <5
#11450
pU 0 6 <3
#11480
pD 6 0 <3
#11500
pU 0 6 <2
#11550
pU 0 6 <3
pLL 66 00 <1 
pHH 00 66 <0 
#11580
pD 6 0 <3
#11600
pU 0 6 <5
pD 6 0 <2
#11650
pU 0 6 <3
pLH 60 06 <1 
pLH 60 06 <0 
#11680
pD 6 0 <3
#11700
pD 6 0 <5
#11750
pU 0 6 <3
#11780
pD 6 0 <3
#11850
pU 0 6 <3
pHL 06 60 <0 
#11880
pD 6 0 <3
#11900
pU 0 6 <2
#11950
pU 0 6 <3
pLL 66 00 <1 
pHH 00 66 <0 
#11980
pD 6 0 <3
#12000
pU 0 6 <5
pD 6 0 <2
#12050
pU 0 6 <3
pL 6 0 <8
pL 6 0 <9
pHH 00 66 <1 
pHL 06 60 <0 
#12080
pD 6 0 <3
#12100
pD 6 0 <5
#12150
pU 0 6 <3
pH 0 6 <8
pH 0 6 <9
pLH 60 06 <1 
pLH 60 06 <0 
#12180
pD 6 0 <3
#12250
pU 0 6 <3
pHL 06 60 <0 
#12280
pD 6 0 <3
#12300
pU 0 6 <2
#12350
pU 0 6 <3
pLL 66 00 <1 
pHH 00 66 <0 
#12380
pD 6 0 <3
#12400
pU 0 6 <5
pD 6 0 <2
#12450
pU 0 6 <3
pL 6 0 <8
pL 6 0 <9
pHH 00 66 <1 
pHL 06 60 <0 
#12480
pD 6 0 <3
#12500
pD 6 0 <5
#12550
pU 0 6 <3
pH 0 6 <8
pH 0 6 <9
pLH 60 06 <1 
pLH 60 06 <0 
#12580
pD 6 0 <3
#12650
pU 0 6 <3
pHL 06 60 <0 
#12680
pD 6 0 <3
#12750
pU 0 6 <3
pLH 60 06 <0 
#12780
pD 6 0 <3
#12850
pU 0 6 <3
pHL 06 60 <0 
#12880
pD 6 0 <3
#12900
pU 0 6 <2
#12950
pU 0 6 <3
pLL 66 00 <1 
pHH 00 66 <0 
#12980
pD 6 0 <3
#13000
pU 0 6 <5
#13050
pU 0 6 <3
pL 6 0 <8
pL 6 0 <9
#13080
pD 6 0 <3
#13100
pD 6 0 <2
#13150
pU 0 6 <3
pHH 00 66 <1 
pHL 06 60 <0 
#13180
pD 6 0 <3
#13200
pD 6 0 <5
pU 0 6 <2
#13250
pU 0 6 <3
pH 0 6 <8
pH 0 6 <9
#13280
pD 6 0 <3
#13300
pU 0 6 <5
pD 6 0 <2
#13350
pU 0 6 <3
pL 6 0 <8
pL 6 0 <9
pLH 60 06 <1 
pLH 60 06 <0 
#13380
pD 6 0 <3
#13400
pD 6 0 <5
#13450
pU 0 6 <3
pH 0 6 <8
pH 0 6 <9
pHL 06 60 <0 
#13480
pD 6 0 <3
#13550
pU 0 6 <3
pLH 60 06 <0 
#13580
pD 6 0 <3
#13600
pU 0 6 <2
#13650
pU 0 6 <3
pLL 66 00 <1 
pHH 00 66 <0 
#13680
pD 6 0 <3
#13700
pU 0 6 <5
#13750
pU 0 6 <3
pL 6 0 <8
pL 6 0 <9
#13780
pD 6 0 <3
#13800
pD 6 0 <2
#13850
pU 0 6 <3
pH 0 6 <8
pH 0 6 <9
pLH 60 06 <1 
pLH 60 06 <0 
#13880
pD 6 0 <3
#13900
pD 6 0 <5
pU 0 6 <2
#13950
pU 0 6 <3
#13980
pD 6 0 <3
#14000
pU 0 6 <5
#14050
pU 0 6 <3
pL 6 0 <8
pL 6 0 <9
#14080
pD 6 0 <3
#14150
pU 0 6 <3
#14180
pD 6 0 <3
#14250
pU 0 6 <3
#14280
pD 6 0 <3
#14300
pD 6 0 <2
#14350
pU 0 6 <3
#14380
pD 6 0 <3
#14400
pD 6 0 <5
#14450
pU 0 6 <3
pH 0 6 <8
pH 0 6 <9
pHL 06 60 <0 
#14480
pD 6 0 <3
#14550
pU 0 6 <3
pLH 60 06 <0 
#14580
pD 6 0 <3
#14650
pU 0 6 <3
pHL 06 60 <0 
#14680
pD 6 0 <3
#14700
pU 0 6 <2
#14750
pU 0 6 <3
pLL 66 00 <1 
pHH 00 66 <0 
#14780
pD 6 0 <3
#14800
pU 0 6 <5
#14850
pU 0 6 <3
pL 6 0 <8
pL 6 0 <9
#14880
pD 6 0 <3
#14900
pD 6 0 <2
#14950
pU 0 6 <3
pHH 00 66 <1 
pHL 06 60 <0 
#14980
pD 6 0 <3
#15000
pD 6 0 <5
#15050
pU 0 6 <3
pH 0 6 <8
pH 0 6 <9
pLH 60 06 <1 
pLH 60 06 <0 
#15080
pD 6 0 <3
#15100
pU 0 6 <2
#15150
pU 0 6 <3
pLL 66 00 <1 
pHH 00 66 <0 
#15180
pD 6 0 <3
#15200
pU 0 6 <5
#15250
pU 0 6 <3
pL 6 0 <8
pL 6 0 <9
#15280
pD 6 0 <3
#15300
pD 6 0 <2
#15350
pU 0 6 <3
pH 0 6 <8
pH 0 6 <9
pLH 60 06 <1 
pLH 60 06 <0 
#15380
pD 6 0 <3
#15400
pD 6 0 <5
pU 0 6 <2
#15450
pU 0 6 <3
#15480
pD 6 0 <3
#15500
pU 0 6 <5
#15550
pU 0 6 <3
pL 6 0 <8
pL 6 0 <9
#15580
pD 6 0 <3
#15600
pD 6 0 <2
#15650
pU 0 6 <3
#15680
pD 6 0 <3
#15700
pD 6 0 <5
#15750
pU 0 6 <3
pH 0 6 <8
pH 0 6 <9
pHL 06 60 <0 
#15780
pD 6 0 <3
#15850
pU 0 6 <3
pLH 60 06 <0 
#15880
pD 6 0 <3
#15950
pU 0 6 <3
pHL 06 60 <0 
#15980
pD 6 0 <3
#16000
pU 0 6 <2
#16050
pU 0 6 <3
pLL 66 00 <1 
pHH 00 66 <0 
#16080
pD 6 0 <3
#16100
pU 0 6 <5
pD 6 0 <2
#16150
pU 0 6 <3
pL 6 0 <8
pL 6 0 <9
pHH 00 66 <1 
pHL 06 60 <0 
#16180
pD 6 0 <3
#16200
pD 6 0 <5
pU 0 6 <2
#16250
pU 0 6 <3
pH 0 6 <8
pH 0 6 <9
#16280
pD 6 0 <3
#16300
pU 0 6 <5
#16350
pU 0 6 <3
pL 6 0 <8
pL 6 0 <9
#16380
pD 6 0 <3
#16450
pU 0 6 <3
#16480
pD 6 0 <3
#16500
pD 6 0 <2
#16550
pU 0 6 <3
pLH 60 06 <1 
pLH 60 06 <0 
#16580
pD 6 0 <3
#16600
pD 6 0 <5
#16650
pU 0 6 <3
pH 0 6 <8
pH 0 6 <9
pHL 06 60 <0 
#16680
pD 6 0 <3
#16750
pU 0 6 <3
pLH 60 06 <0 
#16780
pD 6 0 <3
#16800
pU 0 6 <2
#16850
pU 0 6 <3
pLL 66 00 <1 
pHH 00 66 <0 
#16880
pD 6 0 <3
#16900
pU 0 6 <5
pD 6 0 <2
#16950
pU 0 6 <3
pLH 60 06 <1 
pLH 60 06 <0 
#16980
pD 6 0 <3
#17000
pD 6 0 <5
pU 0 6 <2
#17050
pU 0 6 <3
#17080
pD 6 0 <3
#17100
pU 0 6 <5
pD 6 0 <2
#17150
pU 0 6 <3
pL 6 0 <8
pL 6 0 <9
#17180
pD 6 0 <3
#17200
pD 6 0 <5
pU 0 6 <2
#17250
pU 0 6 <3
pH 0 6 <8
pH 0 6 <9
pLL 66 00 <1 
pHH 00 66 <0 
#17280
pD 6 0 <3
#17300
pU 0 6 <5
pD 6 0 <2
#17350
pU 0 6 <3
pLH 60 06 <1 
pLH 60 06 <0 
#17380
pD 6 0 <3
#17400
pD 6 0 <5
#17450
pU 0 6 <3
#17480
pD 6 0 <3
#17500
pU 0 6 <2
#17550
pU 0 6 <3
pLL 66 00 <1 
pHH 00 66 <0 
#17580
pD 6 0 <3
#17600
pU 0 6 <5
#17650
pU 0 6 <3
pL 6 0 <8
pL 6 0 <9
#17680
pD 6 0 <3
#17700
pD 6 0 <2
#17750
pU 0 6 <3
pH 0 6 <8
pH 0 6 <9
pLH 60 06 <1 
pLH 60 06 <0 
#17780
pD 6 0 <3
#17800
pD 6 0 <5
pU 0 6 <2
#17850
pU 0 6 <3
#17880
pD 6 0 <3
#17900
pU 0 6 <5
#17950
pU 0 6 <3
pL 6 0 <8
pL 6 0 <9
#17980
pD 6 0 <3
#18000
pD 6 0 <2
#18050
pU 0 6 <3
#18080
pD 6 0 <3
#18100
pD 6 0 <5
pU 0 6 <2
#18150
pU 0 6 <3
pH 0 6 <8
pH 0 6 <9
pLL 66 00 <1 
pHH 00 66 <0 
#18180
pD 6 0 <3
#18200
pU 0 6 <5
pD 6 0 <2
#18250
pU 0 6 <3
pLH 60 06 <1 
pLH 60 06 <0 
#18280
pD 6 0 <3
#18300
pD 6 0 <5
pU 0 6 <2
#18350
pU 0 6 <3
#18380
pD 6 0 <3
#18400
pU 0 6 <5
#18450
pU 0 6 <3
pL 6 0 <8
pL 6 0 <9
#18480
pD 6 0 <3
#18550
pU 0 6 <3
#18580
pD 6 0 <3
#18600
pD 6 0 <2
#18650
pU 0 6 <3
#18680
pD 6 0 <3
#18700
pD 6 0 <5
pU 0 6 <2
#18750
pU 0 6 <3
pH 0 6 <8
pH 0 6 <9
pLL 66 00 <1 
pHH 00 66 <0 
#18780
pD 6 0 <3
#18800
pU 0 6 <5
#18850
pU 0 6 <3
pL 6 0 <8
pL 6 0 <9
#18880
pD 6 0 <3
#18950
pU 0 6 <3
#18980
pD 6 0 <3
#19000
pD 6 0 <2
#19050
pU 0 6 <3
pH 0 6 <8
pH 0 6 <9
pLH 60 06 <1 
pLH 60 06 <0 
#19080
pD 6 0 <3
#19100
pD 6 0 <5
pU 0 6 <2
#19150
pU 0 6 <3
#19180
pD 6 0 <3
#19200
pU 0 6 <5
pD 6 0 <2
#19250
pU 0 6 <3
pL 6 0 <8
pL 6 0 <9
#19280
pD 6 0 <3
#19300
pD 6 0 <5
pU 0 6 <2
#19350
pU 0 6 <3
pH 0 6 <8
pH 0 6 <9
pLL 66 00 <1 
pHH 00 66 <0 
#19380
pD 6 0 <3
#19400
pU 0 6 <5
pD 6 0 <2
#19450
pU 0 6 <3
pLH 60 06 <1 
pLH 60 06 <0 
#19480
pD 6 0 <3
#19500
pD 6 0 <5
pU 0 6 <2
#19550
pU 0 6 <3
#19580
pD 6 0 <3
#19600
pU 0 6 <5
#19650
pU 0 6 <3
pL 6 0 <8
pL 6 0 <9
#19680
pD 6 0 <3
#19700
pD 6 0 <2
#19750
pU 0 6 <3
#19780
pD 6 0 <3
#19800
pD 6 0 <5
pU 0 6 <2
#19850
pU 0 6 <3
pH 0 6 <8
pH 0 6 <9
pLL 66 00 <1 
pHH 00 66 <0 
#19880
pD 6 0 <3
#19900
pU 0 6 <5
pD 6 0 <2
#19950
pU 0 6 <3
pLH 60 06 <1 
pLH 60 06 <0 
#19980
pD 6 0 <3
#20000
pD 6 0 <5
#20050
pU 0 6 <3
#20080
pD 6 0 <3
#20150
pU 0 6 <3
pHL 06 60 <0 
#20180
pD 6 0 <3
#20200
pU 0 6 <2
#20250
pU 0 6 <3
pLL 66 00 <1 
pHH 00 66 <0 
#20280
pD 6 0 <3
#20300
pU 0 6 <5
#20350
pU 0 6 <3
pL 6 0 <8
pL 6 0 <9
#20380
pD 6 0 <3
#20400
pD 6 0 <2
#20450
pU 0 6 <3
pHH 00 66 <1 
pHL 06 60 <0 
#20480
pD 6 0 <3
#20500
pD 6 0 <5
#20550
pU 0 6 <3
pH 0 6 <8
pH 0 6 <9
pLH 60 06 <1 
pLH 60 06 <0 
#20580
pD 6 0 <3
#20600
pU 0 6 <2
#20650
pU 0 6 <3
pLL 66 00 <1 
pHH 00 66 <0 
#20680
pD 6 0 <3
#20700
pU 0 6 <5
pD 6 0 <2
#20750
pU 0 6 <3
pLH 60 06 <1 
pLH 60 06 <0 
#20780
pD 6 0 <3
#20800
pD 6 0 <5
pU 0 6 <2
#20850
pU 0 6 <3
#20880
pD 6 0 <3
#20900
pU 0 6 <5
pD 6 0 <2
#20950
pU 0 6 <3
pL 6 0 <8
pL 6 0 <9
#20980
pD 6 0 <3
#21000
pD 6 0 <5
pU 0 6 <2
#21050
pU 0 6 <3
pH 0 6 <8
pH 0 6 <9
pLL 66 00 <1 
pHH 00 66 <0 
#21080
pD 6 0 <3
#21100
pU 0 6 <5
pD 6 0 <2
#21150
pU 0 6 <3
pLH 60 06 <1 
pLH 60 06 <0 
#21180
pD 6 0 <3
#21200
pD 6 0 <5
pU 0 6 <2
#21250
pU 0 6 <3
#21280
pD 6 0 <3
#21300
pU 0 6 <5
pD 6 0 <2
#21350
pU 0 6 <3
pL 6 0 <8
pL 6 0 <9
#21380
pD 6 0 <3
#21400
pD 6 0 <5
#21450
pU 0 6 <3
pH 0 6 <8
pH 0 6 <9
pHL 06 60 <0 
#21480
pD 6 0 <3
#21550
pU 0 6 <3
pLH 60 06 <0 
#21580
pD 6 0 <3
#21650
pU 0 6 <3
pHL 06 60 <0 
#21680
pD 6 0 <3
#21750
pU 0 6 <3
pLH 60 06 <0 
#21780
pD 6 0 <3
#21850
pU 0 6 <3
pHL 06 60 <0 
#21880
pD 6 0 <3
#21950
pU 0 6 <3
pLH 60 06 <0 
#21980
pD 6 0 <3
#22000
pU 0 6 <2
#22050
pU 0 6 <3
pLL 66 00 <1 
pHH 00 66 <0 
#22080
pD 6 0 <3
#22100
pU 0 6 <5
pD 6 0 <2
#22150
pU 0 6 <3
pLH 60 06 <1 
pLH 60 06 <0 
#22180
pD 6 0 <3
#22200
pD 6 0 <5
pU 0 6 <2
#22250
pU 0 6 <3
#22280
pD 6 0 <3
#22300
pU 0 6 <5
#22350
pU 0 6 <3
pL 6 0 <8
pL 6 0 <9
#22380
pD 6 0 <3
#22450
pU 0 6 <3
#22480
pD 6 0 <3
#22500
pD 6 0 <2
#22550
pU 0 6 <3
#22580
pD 6 0 <3
#22600
pD 6 0 <5
#22650
pU 0 6 <3
pH 0 6 <8
pH 0 6 <9
pHL 06 60 <0 
#22680
pD 6 0 <3
#22750
pU 0 6 <3
pLH 60 06 <0 
#22780
pD 6 0 <3
#22800
pU 0 6 <2
#22850
pU 0 6 <3
pLL 66 00 <1 
pHH 00 66 <0 
#22880
pD 6 0 <3
#22900
pU 0 6 <5
pD 6 0 <2
#22950
pU 0 6 <3
pLH 60 06 <1 
pLH 60 06 <0 
#22980
pD 6 0 <3
#23000
pD 6 0 <5
pU 0 6 <2
#23050
pU 0 6 <3
#23080
pD 6 0 <3
#23100
pU 0 6 <5
#23150
pU 0 6 <3
pL 6 0 <8
pL 6 0 <9
#23180
pD 6 0 <3
