run/b10_dumpports.vcd
$comment
	File created using the following command:
		vcd file b10_dumpports.vcd -dumpports
$end
$date
	Sun Nov 21 12:26:51 2021
$end
$version
	dumpports QuestaSim Version 10.5c_4
$end
$timescale
	1ns
$end

$scope module b10_testbench $end

$scope module dut $end
$var port [3:0] <0 v_in $end
$var port [3:0] <1 v_out $end
$var port 1 <2 r_button $end
$var port 1 <3 g_button $end
$var port 1 <4 key $end
$var port 1 <5 start $end
$var port 1 <6 reset $end
$var port 1 <7 test $end
$var port 1 <8 rts $end
$var port 1 <9 rtr $end
$var port 1 <10 clock $end
$var port 1 <11 cts $end
$var port 1 <12 ctr $end
$upscope $end
$upscope $end
$enddefinitions $end
#0
$dumpports
pD 6 0 <2
pD 6 0 <3
pD 6 0 <4
pD 6 0 <5
pD 6 0 <6
pD 6 0 <7
pX 6 6 <11
pX 6 6 <12
pD 6 0 <8
pD 6 0 <9
pD 6 0 <10
pDDDU 6660 0006 <0 
pXXXX 6666 6666 <1 
$end
#50
pU 0 6 <6
pL 6 0 <12
pL 6 0 <11
pLLLL 6666 0000 <1 
#80
pD 6 0 <6
#100
pU 0 6 <2
pDDDD 6666 0000 <0 
#150
pU 0 6 <10
#180
pD 6 0 <10
#200
pU 0 6 <3
#250
pU 0 6 <10
#280
pD 6 0 <10
#300
pU 0 6 <4
#350
pU 0 6 <10
#380
pD 6 0 <10
#400
pU 0 6 <5
#450
pU 0 6 <10
#480
pD 6 0 <10
#500
pU 0 6 <7
pD 6 0 <2
#550
pU 0 6 <10
#580
pD 6 0 <10
#600
pU 0 6 <8
pD 6 0 <3
pU 0 6 <2
#650
pU 0 6 <10
#680
pD 6 0 <10
#700
pU 0 6 <9
pD 6 0 <4
pU 0 6 <3
pD 6 0 <2
#750
pU 0 6 <10
#780
pD 6 0 <10
#800
pD 6 0 <5
pU 0 6 <4
pD 6 0 <3
pU 0 6 <2
pUDDD 0666 6000 <0 
#850
pU 0 6 <10
#880
pD 6 0 <10
#900
pD 6 0 <7
pU 0 6 <5
pD 6 0 <4
pU 0 6 <3
pUUDD 0066 6600 <0 
#950
pU 0 6 <10
#980
pD 6 0 <10
#1000
pD 6 0 <8
pU 0 6 <7
pD 6 0 <5
pU 0 6 <4
pD 6 0 <2
pUUUD 0006 6660 <0 
#1050
pU 0 6 <10
#1080
pD 6 0 <10
#1100
pD 6 0 <9
pU 0 6 <8
pD 6 0 <7
pU 0 6 <5
pD 6 0 <3
pUUUU 0000 6666 <0 
#1150
pU 0 6 <10
#1180
pD 6 0 <10
#1200
pU 0 6 <9
pD 6 0 <8
pU 0 6 <7
pD 6 0 <4
pDUUU 6000 0666 <0 
#1250
pU 0 6 <10
#1280
pD 6 0 <10
#1300
pD 6 0 <9
pU 0 6 <8
pD 6 0 <5
pUDUU 0600 6066 <0 
#1350
pU 0 6 <10
#1380
pD 6 0 <10
#1400
pU 0 6 <9
pD 6 0 <7
pU 0 6 <2
pDUDU 6060 0606 <0 
#1450
pU 0 6 <10
pH 0 6 <11
pHHHL 0006 6660 <1 
#1480
pD 6 0 <10
#1500
pD 6 0 <8
pU 0 6 <3
pD 6 0 <2
pUDUD 0606 6060 <0 
#1550
pU 0 6 <10
pH 0 6 <12
#1580
pD 6 0 <10
#1600
pD 6 0 <9
pU 0 6 <4
pD 6 0 <3
pUUDU 0060 6606 <0 
#1650
pU 0 6 <10
#1680
pD 6 0 <10
#1700
pU 0 6 <5
pD 6 0 <4
pU 0 6 <2
pDUUD 6006 0660 <0 
#1750
pU 0 6 <10
#1780
pD 6 0 <10
#1800
pU 0 6 <7
pD 6 0 <5
pU 0 6 <3
pD 6 0 <2
pDDUU 6600 0066 <0 
#1850
pU 0 6 <10
#1880
pD 6 0 <10
#1900
pU 0 6 <8
pD 6 0 <7
pU 0 6 <4
pD 6 0 <3
pU 0 6 <2
pDDDU 6660 0006 <0 
#1950
pU 0 6 <10
pL 6 0 <12
#1980
pD 6 0 <10
#2000
pU 0 6 <9
pD 6 0 <8
pU 0 6 <5
pD 6 0 <4
pU 0 6 <3
pD 6 0 <2
pDDDD 6666 0000 <0 
#2050
pU 0 6 <10
#2080
pD 6 0 <10
#2100
pD 6 0 <9
pU 0 6 <7
pD 6 0 <5
pU 0 6 <4
pD 6 0 <3
pU 0 6 <2
pUDDD 0666 6000 <0 
#2150
pU 0 6 <10
pL 6 0 <11
#2180
pD 6 0 <10
#2200
pU 0 6 <8
pD 6 0 <7
pU 0 6 <5
pD 6 0 <4
pU 0 6 <3
pDUDD 6066 0600 <0 
#2250
pU 0 6 <10
#2280
pD 6 0 <10
#2300
pU 0 6 <9
pD 6 0 <8
pU 0 6 <7
pD 6 0 <5
pU 0 6 <4
pD 6 0 <2
pDDUD 6606 0060 <0 
#2350
pU 0 6 <10
pH 0 6 <11
pLLLH 6660 0006 <1 
#2380
pD 6 0 <10
#2400
pD 6 0 <9
pU 0 6 <8
pD 6 0 <7
pU 0 6 <5
pD 6 0 <3
pUDDU 0660 6006 <0 
#2450
pU 0 6 <10
#2480
pD 6 0 <10
#2500
pU 0 6 <9
pD 6 0 <8
pU 0 6 <7
pD 6 0 <4
pDUDD 6066 0600 <0 
#2550
pU 0 6 <10
pH 0 6 <12
#2580
pD 6 0 <10
#2600
pD 6 0 <9
pU 0 6 <8
pD 6 0 <5
pU 0 6 <2
pUDUD 0606 6060 <0 
#2650
pU 0 6 <10
pL 6 0 <12
#2680
pD 6 0 <10
#2700
pU 0 6 <9
pD 6 0 <7
pU 0 6 <3
pDUDU 6060 0606 <0 
#2750
pU 0 6 <10
#2780
pD 6 0 <10
#2800
pD 6 0 <8
pU 0 6 <4
pD 6 0 <2
pUDUD 0606 6060 <0 
#2850
pU 0 6 <10
#2880
pD 6 0 <10
#2900
pD 6 0 <9
pU 0 6 <5
pD 6 0 <3
pUUDU 0060 6606 <0 
#2950
pU 0 6 <10
pL 6 0 <11
#2980
pD 6 0 <10
#3000
pU 0 6 <7
pD 6 0 <4
pDUUD 6006 0660 <0 
#3050
pU 0 6 <10
#3080
pD 6 0 <10
#3100
pU 0 6 <8
pD 6 0 <5
pU 0 6 <2
pDDUU 6600 0066 <0 
#3150
pU 0 6 <10
#3180
pD 6 0 <10
#3200
pU 0 6 <9
pD 6 0 <7
pU 0 6 <3
pD 6 0 <2
pDDDU 6660 0006 <0 
#3250
pU 0 6 <10
pH 0 6 <11
pHLHL 0606 6060 <1 
#3280
pD 6 0 <10
#3300
pD 6 0 <8
pU 0 6 <4
pD 6 0 <3
pU 0 6 <2
pUDDD 0666 6000 <0 
#3350
pU 0 6 <10
pH 0 6 <12
#3380
pD 6 0 <10
#3400
pD 6 0 <9
pU 0 6 <5
pD 6 0 <4
pU 0 6 <3
pUUDD 0066 6600 <0 
#3450
pU 0 6 <10
#3480
pD 6 0 <10
#3500
pU 0 6 <7
pD 6 0 <5
pU 0 6 <4
pD 6 0 <2
pDUUD 6006 0660 <0 
#3550
pU 0 6 <10
#3580
pD 6 0 <10
#3600
pU 0 6 <8
pD 6 0 <7
pU 0 6 <5
pD 6 0 <3
pDDUU 6600 0066 <0 
#3650
pU 0 6 <10
pL 6 0 <12
#3680
pD 6 0 <10
#3700
pU 0 6 <9
pD 6 0 <8
pU 0 6 <7
pD 6 0 <4
pDDDU 6660 0006 <0 
#3750
pU 0 6 <10
#3780
pD 6 0 <10
#3800
pD 6 0 <9
pU 0 6 <8
pD 6 0 <5
pUDDD 0666 6000 <0 
#3850
pU 0 6 <10
pL 6 0 <11
#3880
pD 6 0 <10
#3900
pU 0 6 <9
pD 6 0 <7
pDUDD 6066 0600 <0 
#3950
pU 0 6 <10
pH 0 6 <11
pLLHH 6600 0066 <1 
#3980
pD 6 0 <10
#4000
pD 6 0 <8
pUDUD 0606 6060 <0 
#4050
pU 0 6 <10
pH 0 6 <12
#4080
pD 6 0 <10
#4100
pD 6 0 <9
pUUDU 0060 6606 <0 
#4150
pU 0 6 <10
#4180
pD 6 0 <10
#4200
pU 0 6 <2
pDUUD 6006 0660 <0 
#4250
pU 0 6 <10
#4280
pD 6 0 <10
#4300
pU 0 6 <3
pDDUU 6600 0066 <0 
#4350
pU 0 6 <10
#4380
pD 6 0 <10
#4400
pU 0 6 <4
pD 6 0 <2
pDDDU 6660 0006 <0 
#4450
pU 0 6 <10
#4480
pD 6 0 <10
#4500
pU 0 6 <5
pD 6 0 <3
pU 0 6 <2
pDDDD 6666 0000 <0 
#4550
pU 0 6 <10
#4580
pD 6 0 <10
#4600
pU 0 6 <7
pD 6 0 <4
pU 0 6 <3
pD 6 0 <2
#4650
pU 0 6 <10
#4680
pD 6 0 <10
#4700
pU 0 6 <8
pD 6 0 <5
pU 0 6 <4
pD 6 0 <3
pU 0 6 <2
#4750
pU 0 6 <10
pL 6 0 <12
#4780
pD 6 0 <10
#4800
pU 0 6 <9
pD 6 0 <7
pU 0 6 <5
pD 6 0 <4
pU 0 6 <3
#4850
pU 0 6 <10
#4880
pD 6 0 <10
#4900
pD 6 0 <8
pU 0 6 <7
pD 6 0 <5
pU 0 6 <4
pD 6 0 <2
pUDDD 0666 6000 <0 
#4950
pU 0 6 <10
#4980
pD 6 0 <10
#5000
pD 6 0 <9
pU 0 6 <8
pD 6 0 <7
pU 0 6 <5
pD 6 0 <3
pUUDD 0066 6600 <0 
#5050
pU 0 6 <10
pL 6 0 <11
#5080
pD 6 0 <10
#5100
pU 0 6 <9
pD 6 0 <8
pU 0 6 <7
pD 6 0 <4
pU 0 6 <2
pDUUD 6006 0660 <0 
#5150
pU 0 6 <10
pH 0 6 <11
pLLLL 6666 0000 <1 
#5180
pD 6 0 <10
#5200
pD 6 0 <9
pU 0 6 <8
pD 6 0 <5
pU 0 6 <3
pD 6 0 <2
pUDUU 0600 6066 <0 
#5250
pU 0 6 <10
#5280
pD 6 0 <10
#5300
pU 0 6 <9
pD 6 0 <7
pU 0 6 <4
pD 6 0 <3
pU 0 6 <2
pDUDU 6060 0606 <0 
#5350
pU 0 6 <10
#5380
pD 6 0 <10
#5400
pD 6 0 <8
pU 0 6 <5
pD 6 0 <4
pU 0 6 <3
pD 6 0 <2
pUDUD 0606 6060 <0 
#5450
pU 0 6 <10
pH 0 6 <12
#5480
pD 6 0 <10
#5500
pD 6 0 <9
pU 0 6 <7
pD 6 0 <5
pU 0 6 <4
pD 6 0 <3
pU 0 6 <2
pUUDU 0060 6606 <0 
#5550
pU 0 6 <10
#5580
pD 6 0 <10
#5600
pU 0 6 <8
pD 6 0 <7
pU 0 6 <5
pD 6 0 <4
pU 0 6 <3
pD 6 0 <2
pDUUD 6006 0660 <0 
#5650
pU 0 6 <10
pL 6 0 <12
#5680
pD 6 0 <10
#5700
pU 0 6 <9
pD 6 0 <8
pU 0 6 <7
pD 6 0 <5
pU 0 6 <4
pD 6 0 <3
pU 0 6 <2
pDDUU 6600 0066 <0 
#5750
pU 0 6 <10
#5780
pD 6 0 <10
#5800
pD 6 0 <9
pU 0 6 <8
pD 6 0 <7
pU 0 6 <5
pD 6 0 <4
pU 0 6 <3
pD 6 0 <2
pUDDU 0660 6006 <0 
#5850
pU 0 6 <10
pL 6 0 <11
#5880
pD 6 0 <10
#5900
pU 0 6 <9
pD 6 0 <8
pU 0 6 <7
pD 6 0 <5
pU 0 6 <4
pD 6 0 <3
pDUDD 6066 0600 <0 
#5950
pU 0 6 <10
pH 0 6 <11
pLHHL 6006 0660 <1 
#5980
pD 6 0 <10
#6000
pD 6 0 <9
pU 0 6 <8
pD 6 0 <7
pU 0 6 <5
pD 6 0 <4
pUDUD 0606 6060 <0 
#6050
pU 0 6 <10
pL 6 0 <11
#6080
pD 6 0 <10
#6100
pU 0 6 <9
pD 6 0 <8
pU 0 6 <7
pD 6 0 <5
pU 0 6 <2
pDUDU 6060 0606 <0 
#6150
pU 0 6 <10
pH 0 6 <11
#6180
pD 6 0 <10
#6200
pD 6 0 <9
pU 0 6 <8
pD 6 0 <7
pU 0 6 <3
pD 6 0 <2
pUDUD 0606 6060 <0 
#6250
pU 0 6 <10
pL 6 0 <11
#6280
pD 6 0 <10
#6300
pU 0 6 <9
pD 6 0 <8
pU 0 6 <4
pD 6 0 <3
pDUDU 6060 0606 <0 
#6350
pU 0 6 <10
pH 0 6 <11
#6380
pD 6 0 <10
#6400
pD 6 0 <9
pU 0 6 <5
pD 6 0 <4
pU 0 6 <2
pUDUD 0606 6060 <0 
#6450
pU 0 6 <10
pL 6 0 <11
#6480
pD 6 0 <10
#6500
pU 0 6 <7
pD 6 0 <5
pU 0 6 <3
pD 6 0 <2
pDUDU 6060 0606 <0 
#6550
pU 0 6 <10
#6580
pD 6 0 <10
#6600
pU 0 6 <8
pD 6 0 <7
pU 0 6 <4
pD 6 0 <3
pU 0 6 <2
pDDUD 6606 0060 <0 
#6650
pU 0 6 <10
#6680
pD 6 0 <10
#6700
pU 0 6 <9
pD 6 0 <8
pU 0 6 <5
pD 6 0 <4
pU 0 6 <3
pDDDU 6660 0006 <0 
#6750
pU 0 6 <10
pH 0 6 <11
pLLLL 6666 0000 <1 
#6780
pD 6 0 <10
#6800
pD 6 0 <9
pU 0 6 <7
pD 6 0 <5
pU 0 6 <4
pUDDD 0666 6000 <0 
#6850
pU 0 6 <10
pH 0 6 <12
#6880
pD 6 0 <10
#6900
pU 0 6 <8
pD 6 0 <7
pU 0 6 <5
pDUDD 6066 0600 <0 
#6950
pU 0 6 <10
pL 6 0 <12
#6980
pD 6 0 <10
#7000
pU 0 6 <9
pD 6 0 <8
pU 0 6 <7
pD 6 0 <2
pDDUD 6606 0060 <0 
#7050
pU 0 6 <10
#7080
pD 6 0 <10
#7100
pD 6 0 <9
pU 0 6 <8
pD 6 0 <3
pU 0 6 <2
pUDDU 0660 6006 <0 
#7150
pU 0 6 <10
pL 6 0 <11
#7180
pD 6 0 <10
#7200
pU 0 6 <9
pD 6 0 <4
pU 0 6 <3
pDUDD 6066 0600 <0 
#7250
pU 0 6 <10
pH 0 6 <11
pLHLL 6066 0600 <1 
#7280
pD 6 0 <10
#7300
pD 6 0 <5
pU 0 6 <4
pD 6 0 <2
pUDUD 0606 6060 <0 
#7350
pU 0 6 <10
#7380
pD 6 0 <10
#7400
pD 6 0 <7
pU 0 6 <5
pD 6 0 <3
pUUDU 0060 6606 <0 
#7450
pU 0 6 <10
#7480
pD 6 0 <10
#7500
pD 6 0 <8
pU 0 6 <7
pD 6 0 <4
pUUUD 0006 6660 <0 
#7550
pU 0 6 <10
pH 0 6 <12
#7580
pD 6 0 <10
#7600
pD 6 0 <9
pU 0 6 <8
pD 6 0 <5
pU 0 6 <2
pUUUU 0000 6666 <0 
#7650
pU 0 6 <10
pL 6 0 <12
#7680
pD 6 0 <10
#7700
pU 0 6 <9
pD 6 0 <7
pU 0 6 <3
pD 6 0 <2
pDUUU 6000 0666 <0 
#7750
pU 0 6 <10
#7780
pD 6 0 <10
#7800
pD 6 0 <8
pU 0 6 <4
pD 6 0 <3
pU 0 6 <2
pUDUU 0600 6066 <0 
#7850
pU 0 6 <10
#7880
pD 6 0 <10
#7900
pD 6 0 <9
pU 0 6 <5
pD 6 0 <4
pU 0 6 <3
pD 6 0 <2
pUUDU 0060 6606 <0 
#7950
pU 0 6 <10
pL 6 0 <11
#7980
pD 6 0 <10
#8000
pU 0 6 <7
pD 6 0 <5
pU 0 6 <4
pD 6 0 <3
pDUUD 6006 0660 <0 
#8050
pU 0 6 <10
#8080
pD 6 0 <10
#8100
pU 0 6 <8
pD 6 0 <7
pU 0 6 <5
pD 6 0 <4
pDDUU 6600 0066 <0 
#8150
pU 0 6 <10
#8180
pD 6 0 <10
#8200
pU 0 6 <9
pD 6 0 <8
pU 0 6 <7
pD 6 0 <5
pDDDU 6660 0006 <0 
#8250
pU 0 6 <10
pH 0 6 <11
pHHHH 0000 6666 <1 
#8280
pD 6 0 <10
#8300
pD 6 0 <9
pU 0 6 <8
pD 6 0 <7
pU 0 6 <2
pUDDD 0666 6000 <0 
#8350
pU 0 6 <10
#8380
pD 6 0 <10
#8400
pU 0 6 <9
pD 6 0 <8
pU 0 6 <3
pDUDD 6066 0600 <0 
#8450
pU 0 6 <10
pH 0 6 <12
#8480
pD 6 0 <10
#8500
pD 6 0 <9
pU 0 6 <4
pUDUD 0606 6060 <0 
#8550
pU 0 6 <10
#8580
pD 6 0 <10
#8600
pU 0 6 <5
pDUDU 6060 0606 <0 
#8650
pU 0 6 <10
#8680
pD 6 0 <10
#8700
pU 0 6 <7
pDDUD 6606 0060 <0 
#8750
pU 0 6 <10
#8780
pD 6 0 <10
#8800
pU 0 6 <8
pD 6 0 <2
pDDDU 6660 0006 <0 
#8850
pU 0 6 <10
pL 6 0 <12
#8880
pD 6 0 <10
#8900
pU 0 6 <9
pD 6 0 <3
pDDDD 6666 0000 <0 
#8950
pU 0 6 <10
#8980
pD 6 0 <10
#9000
pD 6 0 <4
pU 0 6 <2
pUDDD 0666 6000 <0 
#9050
pU 0 6 <10
#9080
pD 6 0 <10
#9100
pD 6 0 <5
pU 0 6 <3
pD 6 0 <2
pUUDD 0066 6600 <0 
#9150
pU 0 6 <10
#9180
pD 6 0 <10
#9200
pD 6 0 <7
pU 0 6 <4
pD 6 0 <3
pUUUD 0006 6660 <0 
#9250
pU 0 6 <10
#9280
pD 6 0 <10
#9300
pD 6 0 <8
pU 0 6 <5
pD 6 0 <4
pUUUU 0000 6666 <0 
#9350
pU 0 6 <10
#9380
pD 6 0 <10
#9400
pD 6 0 <9
pU 0 6 <7
pD 6 0 <5
#9450
pU 0 6 <10
pL 6 0 <11
#9480
pD 6 0 <10
#9500
pU 0 6 <8
pD 6 0 <7
pU 0 6 <2
pDUUU 6000 0666 <0 
#9550
pU 0 6 <10
#9580
pD 6 0 <10
#9600
pU 0 6 <9
pD 6 0 <8
pU 0 6 <3
pD 6 0 <2
pDDUU 6600 0066 <0 
#9650
pU 0 6 <10
pH 0 6 <11
pLLLH 6660 0006 <1 
#9680
pD 6 0 <10
#9700
pD 6 0 <9
pU 0 6 <4
pD 6 0 <3
pU 0 6 <2
pUDDU 0660 6006 <0 
#9750
pU 0 6 <10
pH 0 6 <12
#9780
pD 6 0 <10
#9800
pU 0 6 <5
pD 6 0 <4
pU 0 6 <3
pD 6 0 <2
pDUDD 6066 0600 <0 
#9850
pU 0 6 <10
#9880
pD 6 0 <10
#9900
pU 0 6 <7
pD 6 0 <5
pU 0 6 <4
pD 6 0 <3
pU 0 6 <2
pDDUD 6606 0060 <0 
#9950
pU 0 6 <10
#9980
pD 6 0 <10
#10000
pU 0 6 <8
pD 6 0 <7
pU 0 6 <5
pD 6 0 <4
pU 0 6 <3
pDDDU 6660 0006 <0 
#10050
pU 0 6 <10
pL 6 0 <12
#10080
pD 6 0 <10
#10100
pU 0 6 <9
pD 6 0 <8
pU 0 6 <7
pD 6 0 <5
pU 0 6 <4
pDDDD 6666 0000 <0 
#10150
pU 0 6 <10
#10180
pD 6 0 <10
#10200
pD 6 0 <9
pU 0 6 <8
pD 6 0 <7
pU 0 6 <5
pUDDD 0666 6000 <0 
#10250
pU 0 6 <10
pL 6 0 <11
#10280
pD 6 0 <10
#10300
pU 0 6 <9
pD 6 0 <8
pU 0 6 <7
pD 6 0 <2
pDUDD 6066 0600 <0 
#10350
pU 0 6 <10
pH 0 6 <11
#10380
pD 6 0 <10
#10400
pD 6 0 <9
pU 0 6 <8
pD 6 0 <3
pU 0 6 <2
pUDUD 0606 6060 <0 
#10450
pU 0 6 <10
#10480
pD 6 0 <10
#10500
pU 0 6 <9
pD 6 0 <4
pU 0 6 <3
pD 6 0 <2
pDUDU 6060 0606 <0 
#10550
pU 0 6 <10
#10580
pD 6 0 <10
#10600
pD 6 0 <5
pU 0 6 <4
pD 6 0 <3
pUDUD 0606 6060 <0 
#10650
pU 0 6 <10
#10680
pD 6 0 <10
#10700
pD 6 0 <7
pU 0 6 <5
pD 6 0 <4
pUUDU 0060 6606 <0 
#10750
pU 0 6 <10
#10780
pD 6 0 <10
#10800
pD 6 0 <8
pU 0 6 <7
pD 6 0 <5
pUUUD 0006 6660 <0 
#10850
pU 0 6 <10
pH 0 6 <12
#10880
pD 6 0 <10
#10900
pD 6 0 <9
pU 0 6 <8
pD 6 0 <7
pUUUU 0000 6666 <0 
#10950
pU 0 6 <10
pL 6 0 <12
#10980
pD 6 0 <10
#11000
pU 0 6 <9
pD 6 0 <8
pU 0 6 <2
pDUUU 6000 0666 <0 
#11050
pU 0 6 <10
#11080
pD 6 0 <10
#11100
pD 6 0 <9
pU 0 6 <3
pD 6 0 <2
pUDUU 0600 6066 <0 
#11150
pU 0 6 <10
pL 6 0 <11
#11180
pD 6 0 <10
#11200
pU 0 6 <4
pD 6 0 <3
pU 0 6 <2
pDUDU 6060 0606 <0 
#11250
pU 0 6 <10
#11280
pD 6 0 <10
#11300
pU 0 6 <5
pD 6 0 <4
pU 0 6 <3
pD 6 0 <2
pDDUD 6606 0060 <0 
#11350
pU 0 6 <10
#11380
pD 6 0 <10
#11400
pU 0 6 <7
pD 6 0 <5
pU 0 6 <4
pD 6 0 <3
pU 0 6 <2
pDDDU 6660 0006 <0 
#11450
pU 0 6 <10
#11480
pD 6 0 <10
#11500
pU 0 6 <8
pD 6 0 <7
pU 0 6 <5
pD 6 0 <4
pU 0 6 <3
pD 6 0 <2
pDDDD 6666 0000 <0 
#11550
pU 0 6 <10
#11580
pD 6 0 <10
#11600
pU 0 6 <9
pD 6 0 <8
pU 0 6 <7
pD 6 0 <5
pU 0 6 <4
pD 6 0 <3
pU 0 6 <2
#11650
pU 0 6 <10
pH 0 6 <11
pHHHH 0000 6666 <1 
#11680
pD 6 0 <10
#11700
pD 6 0 <9
pU 0 6 <8
pD 6 0 <7
pU 0 6 <5
pD 6 0 <4
pU 0 6 <3
pUDDD 0666 6000 <0 
#11750
pU 0 6 <10
#11780
pD 6 0 <10
#11800
pU 0 6 <9
pD 6 0 <8
pU 0 6 <7
pD 6 0 <5
pU 0 6 <4
pD 6 0 <2
pDUDD 6066 0600 <0 
#11850
pU 0 6 <10
pH 0 6 <12
#11880
pD 6 0 <10
#11900
pD 6 0 <9
pU 0 6 <8
pD 6 0 <7
pU 0 6 <5
pD 6 0 <3
pUDUD 0606 6060 <0 
#11950
pU 0 6 <10
pL 6 0 <12
#11980
pD 6 0 <10
#12000
pU 0 6 <9
pD 6 0 <8
pU 0 6 <7
pD 6 0 <4
pU 0 6 <2
pDUDU 6060 0606 <0 
#12050
pU 0 6 <10
#12080
pD 6 0 <10
#12100
pD 6 0 <9
pU 0 6 <8
pD 6 0 <5
pU 0 6 <3
pUDUD 0606 6060 <0 
#12150
pU 0 6 <10
pL 6 0 <11
#12180
pD 6 0 <10
#12200
pU 0 6 <9
pD 6 0 <7
pU 0 6 <4
pDUDU 6060 0606 <0 
#12250
pU 0 6 <10
pH 0 6 <11
pHLHL 0606 6060 <1 
#12280
pD 6 0 <10
#12300
pD 6 0 <8
pU 0 6 <5
pD 6 0 <2
pUDUD 0606 6060 <0 
#12350
pU 0 6 <10
pH 0 6 <12
#12380
pD 6 0 <10
#12400
pD 6 0 <9
pU 0 6 <7
pD 6 0 <3
pU 0 6 <2
pUUDU 0060 6606 <0 
#12450
pU 0 6 <10
#12480
pD 6 0 <10
#12500
pU 0 6 <8
pD 6 0 <4
pU 0 6 <3
pDUUD 6006 0660 <0 
#12550
pU 0 6 <10
pL 6 0 <12
#12580
pD 6 0 <10
#12600
pU 0 6 <9
pD 6 0 <5
pU 0 6 <4
pD 6 0 <2
pDDUU 6600 0066 <0 
#12650
pU 0 6 <10
#12680
pD 6 0 <10
#12700
pD 6 0 <7
pU 0 6 <5
pD 6 0 <3
pU 0 6 <2
pUDDU 0660 6006 <0 
#12750
pU 0 6 <10
#12780
pD 6 0 <10
#12800
pD 6 0 <8
pU 0 6 <7
pD 6 0 <4
pU 0 6 <3
pUUDD 0066 6600 <0 
#12850
pU 0 6 <10
#12880
pD 6 0 <10
#12900
pD 6 0 <9
pU 0 6 <8
pD 6 0 <5
pU 0 6 <4
pD 6 0 <2
pUUUD 0006 6660 <0 
#12950
pU 0 6 <10
pL 6 0 <11
#12980
pD 6 0 <10
#13000
pU 0 6 <9
pD 6 0 <7
pU 0 6 <5
pD 6 0 <3
pDUUU 6000 0666 <0 
#13050
pU 0 6 <10
pH 0 6 <11
pLHHL 6006 0660 <1 
#13080
pD 6 0 <10
#13100
pD 6 0 <8
pU 0 6 <7
pD 6 0 <4
pUDUU 0600 6066 <0 
#13150
pU 0 6 <10
#13180
pD 6 0 <10
#13200
pD 6 0 <9
pU 0 6 <8
pD 6 0 <5
pUUDU 0060 6606 <0 
#13250
pU 0 6 <10
pL 6 0 <11
#13280
pD 6 0 <10
#13300
pU 0 6 <9
pD 6 0 <7
pU 0 6 <2
pDUUD 6006 0660 <0 
#13350
pU 0 6 <10
pH 0 6 <11
#13380
pD 6 0 <10
#13400
pD 6 0 <8
pU 0 6 <3
pUDUU 0600 6066 <0 
#13450
pU 0 6 <10
#13480
pD 6 0 <10
#13500
pD 6 0 <9
pU 0 6 <4
pD 6 0 <2
pUUDU 0060 6606 <0 
#13550
pU 0 6 <10
pL 6 0 <11
#13580
pD 6 0 <10
#13600
pU 0 6 <5
pD 6 0 <3
pU 0 6 <2
pDUUD 6006 0660 <0 
#13650
pU 0 6 <10
#13680
pD 6 0 <10
#13700
pU 0 6 <7
pD 6 0 <4
pU 0 6 <3
pD 6 0 <2
pDDUU 6600 0066 <0 
#13750
pU 0 6 <10
#13780
pD 6 0 <10
#13800
pU 0 6 <8
pD 6 0 <5
pU 0 6 <4
pD 6 0 <3
pDDDU 6660 0006 <0 
#13850
pU 0 6 <10
#13880
pD 6 0 <10
#13900
pU 0 6 <9
pD 6 0 <7
pU 0 6 <5
pD 6 0 <4
pU 0 6 <2
pDDDD 6666 0000 <0 
#13950
pU 0 6 <10
#13980
pD 6 0 <10
#14000
pD 6 0 <8
pU 0 6 <7
pD 6 0 <5
pU 0 6 <3
pD 6 0 <2
pUDDD 0666 6000 <0 
#14050
pU 0 6 <10
pH 0 6 <11
pLLLL 6666 0000 <1 
#14080
pD 6 0 <10
#14100
pD 6 0 <9
pU 0 6 <8
pD 6 0 <7
pU 0 6 <4
pD 6 0 <3
pUUDD 0066 6600 <0 
#14150
pU 0 6 <10
#14180
pD 6 0 <10
#14200
pU 0 6 <9
pD 6 0 <8
pU 0 6 <5
pD 6 0 <4
pDUUD 6006 0660 <0 
#14250
pU 0 6 <10
pH 0 6 <12
#14280
pD 6 0 <10
#14300
pD 6 0 <9
pU 0 6 <7
pD 6 0 <5
pU 0 6 <2
pUDUU 0600 6066 <0 
#14350
pU 0 6 <10
#14380
pD 6 0 <10
#14400
pU 0 6 <8
pD 6 0 <7
pU 0 6 <3
pD 6 0 <2
pDUDU 6060 0606 <0 
#14450
pU 0 6 <10
pL 6 0 <12
#14480
pD 6 0 <10
#14500
pU 0 6 <9
pD 6 0 <8
pU 0 6 <4
pD 6 0 <3
pU 0 6 <2
pDDUD 6606 0060 <0 
#14550
pU 0 6 <10
#14580
pD 6 0 <10
#14600
pD 6 0 <9
pU 0 6 <5
pD 6 0 <4
pU 0 6 <3
pUDDU 0660 6006 <0 
#14650
pU 0 6 <10
pL 6 0 <11
#14680
pD 6 0 <10
#14700
pU 0 6 <7
pD 6 0 <5
pU 0 6 <4
pDUDD 6066 0600 <0 
#14750
pU 0 6 <10
#14780
pD 6 0 <10
#14800
pU 0 6 <8
pD 6 0 <7
pU 0 6 <5
pDDUD 6606 0060 <0 
#14850
pU 0 6 <10
#14880
pD 6 0 <10
#14900
pU 0 6 <9
pD 6 0 <8
pU 0 6 <7
pD 6 0 <2
pDDDU 6660 0006 <0 
#14950
pU 0 6 <10
pH 0 6 <11
pLHLH 6060 0606 <1 
#14980
pD 6 0 <10
#15000
pD 6 0 <9
pU 0 6 <8
pD 6 0 <3
pUDDD 0666 6000 <0 
#15050
pU 0 6 <10
#15080
pD 6 0 <10
#15100
pU 0 6 <9
pD 6 0 <4
pU 0 6 <2
pDUDD 6066 0600 <0 
#15150
pU 0 6 <10
#15180
pD 6 0 <10
#15200
pD 6 0 <5
pU 0 6 <3
pD 6 0 <2
pUDUD 0606 6060 <0 
#15250
pU 0 6 <10
#15280
pD 6 0 <10
#15300
pD 6 0 <7
pU 0 6 <4
pD 6 0 <3
pUUDU 0060 6606 <0 
#15350
pU 0 6 <10
#15380
pD 6 0 <10
#15400
pD 6 0 <8
pU 0 6 <5
pD 6 0 <4
pU 0 6 <2
pUUUD 0006 6660 <0 
#15450
pU 0 6 <10
pH 0 6 <12
#15480
pD 6 0 <10
#15500
pD 6 0 <9
pU 0 6 <7
pD 6 0 <5
pU 0 6 <3
pD 6 0 <2
pUUUU 0000 6666 <0 
#15550
pU 0 6 <10
#15580
pD 6 0 <10
#15600
pU 0 6 <8
pD 6 0 <7
pU 0 6 <4
pD 6 0 <3
pU 0 6 <2
pDUUU 6000 0666 <0 
#15650
pU 0 6 <10
pL 6 0 <12
#15680
pD 6 0 <10
#15700
pU 0 6 <9
pD 6 0 <8
pU 0 6 <5
pD 6 0 <4
pU 0 6 <3
pD 6 0 <2
pDDUU 6600 0066 <0 
#15750
pU 0 6 <10
#15780
pD 6 0 <10
#15800
pD 6 0 <9
pU 0 6 <7
pD 6 0 <5
pU 0 6 <4
pD 6 0 <3
pUDDU 0660 6006 <0 
#15850
pU 0 6 <10
pL 6 0 <11
#15880
pD 6 0 <10
#15900
pU 0 6 <8
pD 6 0 <7
pU 0 6 <5
pD 6 0 <4
pU 0 6 <2
pDUDD 6066 0600 <0 
#15950
pU 0 6 <10
#15980
pD 6 0 <10
