run/b12_dumpports.vcd
$comment
	File created using the following command:
		vcd file b12_dumpports.vcd -dumpports
$end
$date
	Sun Nov 21 13:26:22 2021
$end
$version
	dumpports QuestaSim Version 10.5c_4
$end
$timescale
	1ns
$end

$scope module b12_testbench $end

$scope module dut $end
$var port [3:0] <0 k $end
$var port [3:0] <1 nl $end
$var port 1 <2 clock $end
$var port 1 <3 reset $end
$var port 1 <4 start $end
$var port 1 <5 nloss $end
$var port 1 <6 speaker $end
$upscope $end
$upscope $end
$enddefinitions $end
#0
$dumpports
pD 6 0 <2
pD 6 0 <3
pD 6 0 <4
pX 6 6 <5
pX 6 6 <6
pDDDU 6660 0006 <0 
pXXXX 6666 6666 <1 
$end
#50
pU 0 6 <3
pL 6 0 <6
pL 6 0 <5
pLLLL 6666 0000 <1 
#80
pD 6 0 <3
#100
pDDDD 6666 0000 <0 
#150
pU 0 6 <2
#180
pD 6 0 <2
#250
pU 0 6 <2
#280
pD 6 0 <2
#350
pU 0 6 <2
#380
pD 6 0 <2
#450
pU 0 6 <2
#480
pD 6 0 <2
#550
pU 0 6 <2
#580
pD 6 0 <2
#650
pU 0 6 <2
#680
pD 6 0 <2
#700
pU 0 6 <4
#750
pU 0 6 <2
#780
pD 6 0 <2
#800
pUDDD 0666 6000 <0 
#850
pU 0 6 <2
#880
pD 6 0 <2
#900
pUUDD 0066 6600 <0 
#950
pU 0 6 <2
#980
pD 6 0 <2
#1000
pUUUD 0006 6660 <0 
#1050
pU 0 6 <2
#1080
pD 6 0 <2
#1100
pD 6 0 <4
pUUUU 0000 6666 <0 
#1150
pU 0 6 <2
#1180
pD 6 0 <2
#1200
pU 0 6 <4
pDUUU 6000 0666 <0 
#1250
pU 0 6 <2
#1280
pD 6 0 <2
#1300
pD 6 0 <4
pUDUU 0600 6066 <0 
#1350
pU 0 6 <2
#1380
pD 6 0 <2
#1400
pU 0 6 <4
pDUDU 6060 0606 <0 
#1450
pU 0 6 <2
#1480
pD 6 0 <2
#1500
pUDUD 0606 6060 <0 
#1550
pU 0 6 <2
#1580
pD 6 0 <2
#1600
pD 6 0 <4
pUUDU 0060 6606 <0 
#1650
pU 0 6 <2
#1680
pD 6 0 <2
#1700
pDUUD 6006 0660 <0 
#1750
pU 0 6 <2
#1780
pD 6 0 <2
#1800
pDDUU 6600 0066 <0 
#1850
pU 0 6 <2
#1880
pD 6 0 <2
#1900
pDDDU 6660 0006 <0 
#1950
pU 0 6 <2
pHLLL 0666 6000 <1 
#1980
pD 6 0 <2
#2000
pU 0 6 <4
pDDDD 6666 0000 <0 
#2050
pU 0 6 <2
pLLLL 6666 0000 <1 
#2080
pD 6 0 <2
#2100
pD 6 0 <4
pUDDD 0666 6000 <0 
#2150
pU 0 6 <2
#2180
pD 6 0 <2
#2200
pDUDD 6066 0600 <0 
#2250
pU 0 6 <2
#2280
pD 6 0 <2
#2300
pU 0 6 <4
pDDUD 6606 0060 <0 
#2350
pU 0 6 <2
#2380
pD 6 0 <2
#2400
pD 6 0 <4
pUDDU 0660 6006 <0 
#2450
pU 0 6 <2
#2480
pD 6 0 <2
#2500
pU 0 6 <4
pDUDD 6066 0600 <0 
#2550
pU 0 6 <2
#2580
pD 6 0 <2
#2600
pD 6 0 <4
pUDUD 0606 6060 <0 
#2650
pU 0 6 <2
#2680
pD 6 0 <2
#2700
pU 0 6 <4
pDUDU 6060 0606 <0 
#2750
pU 0 6 <2
#2780
pD 6 0 <2
#2800
pUDUD 0606 6060 <0 
#2850
pU 0 6 <2
#2880
pD 6 0 <2
#2900
pD 6 0 <4
pUUDU 0060 6606 <0 
#2950
pU 0 6 <2
#2980
pD 6 0 <2
#3000
pDUUD 6006 0660 <0 
#3050
pU 0 6 <2
#3080
pD 6 0 <2
#3100
pDDUU 6600 0066 <0 
#3150
pU 0 6 <2
#3180
pD 6 0 <2
#3200
pU 0 6 <4
pDDDU 6660 0006 <0 
#3250
pU 0 6 <2
#3280
pD 6 0 <2
#3300
pUDDD 0666 6000 <0 
#3350
pU 0 6 <2
#3380
pD 6 0 <2
#3400
pD 6 0 <4
pUUDD 0066 6600 <0 
#3450
pU 0 6 <2
#3480
pD 6 0 <2
#3500
pDUUD 6006 0660 <0 
#3550
pU 0 6 <2
#3580
pD 6 0 <2
#3600
pDDUU 6600 0066 <0 
#3650
pU 0 6 <2
#3680
pD 6 0 <2
#3700
pU 0 6 <4
pDDDU 6660 0006 <0 
#3750
pU 0 6 <2
#3780
pD 6 0 <2
#3800
pD 6 0 <4
pUDDD 0666 6000 <0 
#3850
pU 0 6 <2
#3880
pD 6 0 <2
#3900
pU 0 6 <4
pDUDD 6066 0600 <0 
#3950
pU 0 6 <2
#3980
pD 6 0 <2
#4000
pUDUD 0606 6060 <0 
#4050
pU 0 6 <2
#4080
pD 6 0 <2
#4100
pD 6 0 <4
pUUDU 0060 6606 <0 
#4150
pU 0 6 <2
#4180
pD 6 0 <2
#4200
pDUUD 6006 0660 <0 
#4250
pU 0 6 <2
#4280
pD 6 0 <2
#4300
pDDUU 6600 0066 <0 
#4350
pU 0 6 <2
#4380
pD 6 0 <2
#4400
pDDDU 6660 0006 <0 
#4450
pU 0 6 <2
pLLLH 6660 0006 <1 
#4480
pD 6 0 <2
#4500
pDDDD 6666 0000 <0 
#4550
pU 0 6 <2
#4580
pD 6 0 <2
#4650
pU 0 6 <2
#4680
pD 6 0 <2
#4750
pU 0 6 <2
#4780
pD 6 0 <2
#4800
pU 0 6 <4
#4850
pU 0 6 <2
pH 0 6 <6
pLLLL 6666 0000 <1 
#4880
pD 6 0 <2
#4900
pUDDD 0666 6000 <0 
#4950
pU 0 6 <2
pL 6 0 <6
#4980
pD 6 0 <2
#5000
pD 6 0 <4
pUUDD 0066 6600 <0 
#5050
pU 0 6 <2
#5080
pD 6 0 <2
#5100
pU 0 6 <4
pDUUD 6006 0660 <0 
#5150
pU 0 6 <2
#5180
pD 6 0 <2
#5200
pD 6 0 <4
pUDUU 0600 6066 <0 
#5250
pU 0 6 <2
#5280
pD 6 0 <2
#5300
pU 0 6 <4
pDUDU 6060 0606 <0 
#5350
pU 0 6 <2
#5380
pD 6 0 <2
#5400
pUDUD 0606 6060 <0 
#5450
pU 0 6 <2
#5480
pD 6 0 <2
#5500
pD 6 0 <4
pUUDU 0060 6606 <0 
#5550
pU 0 6 <2
#5580
pD 6 0 <2
#5600
pDUUD 6006 0660 <0 
#5650
pU 0 6 <2
#5680
pD 6 0 <2
#5700
pU 0 6 <4
pDDUU 6600 0066 <0 
#5750
pU 0 6 <2
#5780
pD 6 0 <2
#5800
pD 6 0 <4
pUDDU 0660 6006 <0 
#5850
pU 0 6 <2
#5880
pD 6 0 <2
#5900
pU 0 6 <4
pDUDD 6066 0600 <0 
#5950
pU 0 6 <2
#5980
pD 6 0 <2
#6000
pD 6 0 <4
pUDUD 0606 6060 <0 
#6050
pU 0 6 <2
#6080
pD 6 0 <2
#6100
pU 0 6 <4
pDUDU 6060 0606 <0 
#6150
pU 0 6 <2
#6180
pD 6 0 <2
#6200
pD 6 0 <4
pUDUD 0606 6060 <0 
#6250
pU 0 6 <2
#6280
pD 6 0 <2
#6300
pU 0 6 <4
pDUDU 6060 0606 <0 
#6350
pU 0 6 <2
#6380
pD 6 0 <2
#6400
pD 6 0 <4
pUDUD 0606 6060 <0 
#6450
pU 0 6 <2
#6480
pD 6 0 <2
#6500
pDUDU 6060 0606 <0 
#6550
pU 0 6 <2
#6580
pD 6 0 <2
#6600
pDDUD 6606 0060 <0 
#6650
pU 0 6 <2
#6680
pD 6 0 <2
#6700
pU 0 6 <4
pDDDU 6660 0006 <0 
#6750
pU 0 6 <2
#6780
pD 6 0 <2
#6800
pD 6 0 <4
pUDDD 0666 6000 <0 
#6850
pU 0 6 <2
#6880
pD 6 0 <2
#6900
pDUDD 6066 0600 <0 
#6950
pU 0 6 <2
#6980
pD 6 0 <2
#7000
pU 0 6 <4
pDDUD 6606 0060 <0 
#7050
pU 0 6 <2
#7080
pD 6 0 <2
#7100
pD 6 0 <4
pUDDU 0660 6006 <0 
#7150
pU 0 6 <2
#7180
pD 6 0 <2
#7200
pU 0 6 <4
pDUDD 6066 0600 <0 
#7250
pU 0 6 <2
#7280
pD 6 0 <2
#7300
pUDUD 0606 6060 <0 
#7350
pU 0 6 <2
#7380
pD 6 0 <2
#7400
pUUDU 0060 6606 <0 
#7450
pU 0 6 <2
#7480
pD 6 0 <2
#7500
pUUUD 0006 6660 <0 
#7550
pU 0 6 <2
#7580
pD 6 0 <2
#7600
pD 6 0 <4
pUUUU 0000 6666 <0 
#7650
pU 0 6 <2
#7680
pD 6 0 <2
#7700
pU 0 6 <4
pDUUU 6000 0666 <0 
#7750
pU 0 6 <2
#7780
pD 6 0 <2
#7800
pUDUU 0600 6066 <0 
#7850
pU 0 6 <2
#7880
pD 6 0 <2
#7900
pD 6 0 <4
pUUDU 0060 6606 <0 
#7950
pU 0 6 <2
#7980
pD 6 0 <2
#8000
pDUUD 6006 0660 <0 
#8050
pU 0 6 <2
#8080
pD 6 0 <2
#8100
pDDUU 6600 0066 <0 
#8150
pU 0 6 <2
#8180
pD 6 0 <2
#8200
pU 0 6 <4
pDDDU 6660 0006 <0 
#8250
pU 0 6 <2
#8280
pD 6 0 <2
#8300
pD 6 0 <4
pUDDD 0666 6000 <0 
#8350
pU 0 6 <2
#8380
pD 6 0 <2
#8400
pU 0 6 <4
pDUDD 6066 0600 <0 
#8450
pU 0 6 <2
#8480
pD 6 0 <2
#8500
pD 6 0 <4
pUDUD 0606 6060 <0 
#8550
pU 0 6 <2
#8580
pD 6 0 <2
#8600
pDUDU 6060 0606 <0 
#8650
pU 0 6 <2
#8680
pD 6 0 <2
#8700
pDDUD 6606 0060 <0 
#8750
pU 0 6 <2
#8780
pD 6 0 <2
#8800
pDDDU 6660 0006 <0 
#8850
pU 0 6 <2
pLLLH 6660 0006 <1 
#8880
pD 6 0 <2
#8900
pU 0 6 <4
pDDDD 6666 0000 <0 
#8950
pU 0 6 <2
pLLLL 6666 0000 <1 
#8980
pD 6 0 <2
#9000
pUDDD 0666 6000 <0 
#9050
pU 0 6 <2
#9080
pD 6 0 <2
#9100
pUUDD 0066 6600 <0 
#9150
pU 0 6 <2
#9180
pD 6 0 <2
#9200
pUUUD 0006 6660 <0 
#9250
pU 0 6 <2
#9280
pD 6 0 <2
#9300
pUUUU 0000 6666 <0 
#9350
pU 0 6 <2
#9380
pD 6 0 <2
#9400
pD 6 0 <4
#9450
pU 0 6 <2
#9480
pD 6 0 <2
#9500
pDUUU 6000 0666 <0 
#9550
pU 0 6 <2
#9580
pD 6 0 <2
#9600
pU 0 6 <4
pDDUU 6600 0066 <0 
#9650
pU 0 6 <2
#9680
pD 6 0 <2
#9700
pD 6 0 <4
pUDDU 0660 6006 <0 
#9750
pU 0 6 <2
#9780
pD 6 0 <2
#9800
pDUDD 6066 0600 <0 
#9850
pU 0 6 <2
#9880
pD 6 0 <2
#9900
pDDUD 6606 0060 <0 
#9950
pU 0 6 <2
#9980
pD 6 0 <2
#10000
pDDDU 6660 0006 <0 
#10050
pU 0 6 <2
pLLLH 6660 0006 <1 
#10080
pD 6 0 <2
#10100
pU 0 6 <4
pDDDD 6666 0000 <0 
#10150
pU 0 6 <2
pLLLL 6666 0000 <1 
#10180
pD 6 0 <2
#10200
pD 6 0 <4
pUDDD 0666 6000 <0 
#10250
pU 0 6 <2
#10280
pD 6 0 <2
#10300
pU 0 6 <4
pDUDD 6066 0600 <0 
#10350
pU 0 6 <2
#10380
pD 6 0 <2
#10400
pD 6 0 <4
pUDUD 0606 6060 <0 
#10450
pU 0 6 <2
#10480
pD 6 0 <2
#10500
pU 0 6 <4
pDUDU 6060 0606 <0 
#10550
pU 0 6 <2
#10580
pD 6 0 <2
#10600
pUDUD 0606 6060 <0 
#10650
pU 0 6 <2
#10680
pD 6 0 <2
#10700
pUUDU 0060 6606 <0 
#10750
pU 0 6 <2
#10780
pD 6 0 <2
#10800
pUUUD 0006 6660 <0 
#10850
pU 0 6 <2
#10880
pD 6 0 <2
#10900
pD 6 0 <4
pUUUU 0000 6666 <0 
#10950
pU 0 6 <2
#10980
pD 6 0 <2
#11000
pU 0 6 <4
pDUUU 6000 0666 <0 
#11050
pU 0 6 <2
#11080
pD 6 0 <2
#11100
pD 6 0 <4
pUDUU 0600 6066 <0 
#11150
pU 0 6 <2
#11180
pD 6 0 <2
#11200
pDUDU 6060 0606 <0 
#11250
pU 0 6 <2
#11280
pD 6 0 <2
#11300
pDDUD 6606 0060 <0 
#11350
pU 0 6 <2
#11380
pD 6 0 <2
#11400
pDDDU 6660 0006 <0 
#11450
pU 0 6 <2
pLHLL 6066 0600 <1 
#11480
pD 6 0 <2
#11500
pDDDD 6666 0000 <0 
#11550
pU 0 6 <2
#11580
pD 6 0 <2
#11600
pU 0 6 <4
#11650
pU 0 6 <2
pLLLL 6666 0000 <1 
#11680
pD 6 0 <2
#11700
pD 6 0 <4
pUDDD 0666 6000 <0 
#11750
pU 0 6 <2
#11780
pD 6 0 <2
#11800
pU 0 6 <4
pDUDD 6066 0600 <0 
#11850
pU 0 6 <2
#11880
pD 6 0 <2
#11900
pD 6 0 <4
pUDUD 0606 6060 <0 
#11950
pU 0 6 <2
#11980
pD 6 0 <2
#12000
pU 0 6 <4
pDUDU 6060 0606 <0 
#12050
pU 0 6 <2
#12080
pD 6 0 <2
#12100
pD 6 0 <4
pUDUD 0606 6060 <0 
#12150
pU 0 6 <2
#12180
pD 6 0 <2
#12200
pU 0 6 <4
pDUDU 6060 0606 <0 
#12250
pU 0 6 <2
#12280
pD 6 0 <2
#12300
pUDUD 0606 6060 <0 
#12350
pU 0 6 <2
#12380
pD 6 0 <2
#12400
pD 6 0 <4
pUUDU 0060 6606 <0 
#12450
pU 0 6 <2
#12480
pD 6 0 <2
#12500
pDUUD 6006 0660 <0 
#12550
pU 0 6 <2
#12580
pD 6 0 <2
#12600
pU 0 6 <4
pDDUU 6600 0066 <0 
#12650
pU 0 6 <2
#12680
pD 6 0 <2
#12700
pUDDU 0660 6006 <0 
#12750
pU 0 6 <2
#12780
pD 6 0 <2
#12800
pUUDD 0066 6600 <0 
#12850
pU 0 6 <2
#12880
pD 6 0 <2
#12900
pD 6 0 <4
pUUUD 0006 6660 <0 
#12950
pU 0 6 <2
#12980
pD 6 0 <2
#13000
pU 0 6 <4
pDUUU 6000 0666 <0 
#13050
pU 0 6 <2
#13080
pD 6 0 <2
#13100
pUDUU 0600 6066 <0 
#13150
pU 0 6 <2
#13180
pD 6 0 <2
#13200
pD 6 0 <4
pUUDU 0060 6606 <0 
#13250
pU 0 6 <2
#13280
pD 6 0 <2
#13300
pU 0 6 <4
pDUUD 6006 0660 <0 
#13350
pU 0 6 <2
#13380
pD 6 0 <2
#13400
pUDUU 0600 6066 <0 
#13450
pU 0 6 <2
#13480
pD 6 0 <2
#13500
pD 6 0 <4
pUUDU 0060 6606 <0 
#13550
pU 0 6 <2
#13580
pD 6 0 <2
#13600
pDUUD 6006 0660 <0 
#13650
pU 0 6 <2
#13680
pD 6 0 <2
#13700
pDDUU 6600 0066 <0 
#13750
pU 0 6 <2
#13780
pD 6 0 <2
#13800
pDDDU 6660 0006 <0 
#13850
pU 0 6 <2
pLHLL 6066 0600 <1 
#13880
pD 6 0 <2
#13900
pU 0 6 <4
pDDDD 6666 0000 <0 
#13950
pU 0 6 <2
pLLLL 6666 0000 <1 
#13980
pD 6 0 <2
#14000
pUDDD 0666 6000 <0 
#14050
pU 0 6 <2
#14080
pD 6 0 <2
#14100
pD 6 0 <4
pUUDD 0066 6600 <0 
#14150
pU 0 6 <2
#14180
pD 6 0 <2
#14200
pU 0 6 <4
pDUUD 6006 0660 <0 
#14250
pU 0 6 <2
#14280
pD 6 0 <2
#14300
pD 6 0 <4
pUDUU 0600 6066 <0 
#14350
pU 0 6 <2
#14380
pD 6 0 <2
#14400
pDUDU 6060 0606 <0 
#14450
pU 0 6 <2
#14480
pD 6 0 <2
#14500
pU 0 6 <4
pDDUD 6606 0060 <0 
#14550
pU 0 6 <2
#14580
pD 6 0 <2
#14600
pD 6 0 <4
pUDDU 0660 6006 <0 
#14650
pU 0 6 <2
#14680
pD 6 0 <2
#14700
pDUDD 6066 0600 <0 
#14750
pU 0 6 <2
#14780
pD 6 0 <2
#14800
pDDUD 6606 0060 <0 
#14850
pU 0 6 <2
#14880
pD 6 0 <2
#14900
pU 0 6 <4
pDDDU 6660 0006 <0 
#14950
pU 0 6 <2
#14980
pD 6 0 <2
#15000
pD 6 0 <4
pUDDD 0666 6000 <0 
#15050
pU 0 6 <2
#15080
pD 6 0 <2
#15100
pU 0 6 <4
pDUDD 6066 0600 <0 
#15150
pU 0 6 <2
#15180
pD 6 0 <2
#15200
pUDUD 0606 6060 <0 
#15250
pU 0 6 <2
#15280
pD 6 0 <2
#15300
pUUDU 0060 6606 <0 
#15350
pU 0 6 <2
#15380
pD 6 0 <2
#15400
pUUUD 0006 6660 <0 
#15450
pU 0 6 <2
#15480
pD 6 0 <2
#15500
pD 6 0 <4
pUUUU 0000 6666 <0 
#15550
pU 0 6 <2
#15580
pD 6 0 <2
#15600
pDUUU 6000 0666 <0 
#15650
pU 0 6 <2
#15680
pD 6 0 <2
#15700
pU 0 6 <4
pDDUU 6600 0066 <0 
#15750
pU 0 6 <2
#15780
pD 6 0 <2
#15800
pD 6 0 <4
pUDDU 0660 6006 <0 
#15850
pU 0 6 <2
#15880
pD 6 0 <2
#15900
pDUDD 6066 0600 <0 
#15950
pU 0 6 <2
#15980
pD 6 0 <2
#16000
pU 0 6 <4
pDDUD 6606 0060 <0 
#16050
pU 0 6 <2
#16080
pD 6 0 <2
#16100
pD 6 0 <4
pUDDU 0660 6006 <0 
#16150
pU 0 6 <2
#16180
pD 6 0 <2
#16200
pU 0 6 <4
pDUDD 6066 0600 <0 
#16250
pU 0 6 <2
#16280
pD 6 0 <2
#16300
pD 6 0 <4
pUDUD 0606 6060 <0 
#16350
pU 0 6 <2
#16380
pD 6 0 <2
#16400
pDUDU 6060 0606 <0 
#16450
pU 0 6 <2
#16480
pD 6 0 <2
#16500
pU 0 6 <4
pDDUD 6606 0060 <0 
#16550
pU 0 6 <2
#16580
pD 6 0 <2
#16600
pD 6 0 <4
pUDDU 0660 6006 <0 
#16650
pU 0 6 <2
#16680
pD 6 0 <2
#16700
pDUDD 6066 0600 <0 
#16750
pU 0 6 <2
#16780
pD 6 0 <2
#16800
pU 0 6 <4
pDDUD 6606 0060 <0 
#16850
pU 0 6 <2
#16880
pD 6 0 <2
#16900
pD 6 0 <4
pUDDU 0660 6006 <0 
#16950
pU 0 6 <2
#16980
pD 6 0 <2
#17000
pDUDD 6066 0600 <0 
#17050
pU 0 6 <2
#17080
pD 6 0 <2
#17100
pU 0 6 <4
pDDUD 6606 0060 <0 
#17150
pU 0 6 <2
#17180
pD 6 0 <2
#17200
pD 6 0 <4
pUDDU 0660 6006 <0 
#17250
pU 0 6 <2
#17280
pD 6 0 <2
#17300
pU 0 6 <4
pDUDD 6066 0600 <0 
#17350
pU 0 6 <2
#17380
pD 6 0 <2
#17400
pUDUD 0606 6060 <0 
#17450
pU 0 6 <2
#17480
pD 6 0 <2
#17500
pD 6 0 <4
pUUDU 0060 6606 <0 
#17550
pU 0 6 <2
#17580
pD 6 0 <2
#17600
pU 0 6 <4
pDUUD 6006 0660 <0 
#17650
pU 0 6 <2
#17680
pD 6 0 <2
#17700
pD 6 0 <4
pUDUU 0600 6066 <0 
#17750
pU 0 6 <2
#17780
pD 6 0 <2
#17800
pU 0 6 <4
pDUDU 6060 0606 <0 
#17850
pU 0 6 <2
#17880
pD 6 0 <2
#17900
pD 6 0 <4
pUDUD 0606 6060 <0 
#17950
pU 0 6 <2
#17980
pD 6 0 <2
#18000
pU 0 6 <4
pDUDU 6060 0606 <0 
#18050
pU 0 6 <2
#18080
pD 6 0 <2
#18100
pUDUD 0606 6060 <0 
#18150
pU 0 6 <2
#18180
pD 6 0 <2
#18200
pUUDU 0060 6606 <0 
#18250
pU 0 6 <2
#18280
pD 6 0 <2
#18300
pUUUD 0006 6660 <0 
#18350
pU 0 6 <2
#18380
pD 6 0 <2
#18400
pUUUU 0000 6666 <0 
#18450
pU 0 6 <2
#18480
pD 6 0 <2
#18550
pU 0 6 <2
#18580
pD 6 0 <2
#18600
pD 6 0 <4
#18650
pU 0 6 <2
#18680
pD 6 0 <2
#18700
pDUUU 6000 0666 <0 
#18750
pU 0 6 <2
#18780
pD 6 0 <2
#18800
pU 0 6 <4
pDDUU 6600 0066 <0 
#18850
pU 0 6 <2
#18880
pD 6 0 <2
#18900
pUDDU 0660 6006 <0 
#18950
pU 0 6 <2
#18980
pD 6 0 <2
#19000
pUUDD 0066 6600 <0 
#19050
pU 0 6 <2
#19080
pD 6 0 <2
#19100
pD 6 0 <4
pUUUD 0006 6660 <0 
#19150
pU 0 6 <2
#19180
pD 6 0 <2
#19200
pDUUU 6000 0666 <0 
#19250
pU 0 6 <2
#19280
pD 6 0 <2
#19300
pDDUU 6600 0066 <0 
#19350
pU 0 6 <2
#19380
pD 6 0 <2
#19400
pDDDU 6660 0006 <0 
#19450
pU 0 6 <2
pLHLL 6066 0600 <1 
#19480
pD 6 0 <2
#19500
pU 0 6 <4
pDDDD 6666 0000 <0 
#19550
pU 0 6 <2
pLLLL 6666 0000 <1 
#19580
pD 6 0 <2
#19600
pD 6 0 <4
pUDDD 0666 6000 <0 
#19650
pU 0 6 <2
#19680
pD 6 0 <2
#19700
pDUDD 6066 0600 <0 
#19750
pU 0 6 <2
#19780
pD 6 0 <2
#19800
pDDUD 6606 0060 <0 
#19850
pU 0 6 <2
#19880
pD 6 0 <2
#19900
pDDDU 6660 0006 <0 
#19950
pU 0 6 <2
pHLLL 0666 6000 <1 
#19980
pD 6 0 <2
#20000
pU 0 6 <4
pDDDD 6666 0000 <0 
#20050
pU 0 6 <2
pLLLL 6666 0000 <1 
#20080
pD 6 0 <2
#20100
pD 6 0 <4
pUDDD 0666 6000 <0 
#20150
pU 0 6 <2
#20180
pD 6 0 <2
#20200
pDUDD 6066 0600 <0 
#20250
pU 0 6 <2
#20280
pD 6 0 <2
#20300
pDDUD 6606 0060 <0 
#20350
pU 0 6 <2
#20380
pD 6 0 <2
#20400
pU 0 6 <4
pDDDU 6660 0006 <0 
#20450
pU 0 6 <2
#20480
pD 6 0 <2
#20500
pUDDD 0666 6000 <0 
#20550
pU 0 6 <2
#20580
pD 6 0 <2
#20600
pD 6 0 <4
pUUDD 0066 6600 <0 
#20650
pU 0 6 <2
#20680
pD 6 0 <2
#20700
pDUUD 6006 0660 <0 
#20750
pU 0 6 <2
#20780
pD 6 0 <2
#20800
pU 0 6 <4
pDDUU 6600 0066 <0 
#20850
pU 0 6 <2
#20880
pD 6 0 <2
#20900
pD 6 0 <4
pUDDU 0660 6006 <0 
#20950
pU 0 6 <2
#20980
pD 6 0 <2
#21000
pDUDD 6066 0600 <0 
#21050
pU 0 6 <2
#21080
pD 6 0 <2
#21100
pU 0 6 <4
pDDUD 6606 0060 <0 
#21150
pU 0 6 <2
#21180
pD 6 0 <2
#21200
pD 6 0 <4
pUDDU 0660 6006 <0 
#21250
pU 0 6 <2
#21280
pD 6 0 <2
#21300
pDUDD 6066 0600 <0 
#21350
pU 0 6 <2
#21380
pD 6 0 <2
#21400
pDDUD 6606 0060 <0 
#21450
pU 0 6 <2
#21480
pD 6 0 <2
#21500
pDDDU 6660 0006 <0 
#21550
pU 0 6 <2
pHLLL 0666 6000 <1 
#21580
pD 6 0 <2
#21600
pU 0 6 <4
pDDDD 6666 0000 <0 
#21650
pU 0 6 <2
pLLLL 6666 0000 <1 
#21680
pD 6 0 <2
#21700
pUDDD 0666 6000 <0 
#21750
pU 0 6 <2
#21780
pD 6 0 <2
#21800
pUUDD 0066 6600 <0 
#21850
pU 0 6 <2
#21880
pD 6 0 <2
#21900
pD 6 0 <4
pUUUD 0006 6660 <0 
#21950
pU 0 6 <2
#21980
pD 6 0 <2
#22000
pU 0 6 <4
pDUUU 6000 0666 <0 
#22050
pU 0 6 <2
#22080
pD 6 0 <2
#22100
pD 6 0 <4
pUDUU 0600 6066 <0 
#22150
pU 0 6 <2
#22180
pD 6 0 <2
#22200
pDUDU 6060 0606 <0 
#22250
pU 0 6 <2
#22280
pD 6 0 <2
#22300
pDDUD 6606 0060 <0 
#22350
pU 0 6 <2
#22380
pD 6 0 <2
#22400
pU 0 6 <4
pDDDU 6660 0006 <0 
#22450
pU 0 6 <2
#22480
pD 6 0 <2
#22500
pUDDD 0666 6000 <0 
#22550
pU 0 6 <2
#22580
pD 6 0 <2
#22600
pUUDD 0066 6600 <0 
#22650
pU 0 6 <2
#22680
pD 6 0 <2
#22700
pD 6 0 <4
pUUUD 0006 6660 <0 
#22750
pU 0 6 <2
#22780
pD 6 0 <2
#22800
pDUUU 6000 0666 <0 
#22850
pU 0 6 <2
#22880
pD 6 0 <2
#22900
pDDUU 6600 0066 <0 
#22950
pU 0 6 <2
#22980
pD 6 0 <2
#23000
pU 0 6 <4
pDDDU 6660 0006 <0 
#23050
pU 0 6 <2
#23080
pD 6 0 <2
#23100
pD 6 0 <4
pUDDD 0666 6000 <0 
#23150
pU 0 6 <2
#23180
pD 6 0 <2
#23200
pDUDD 6066 0600 <0 
#23250
pU 0 6 <2
#23280
pD 6 0 <2
#23300
pDDUD 6606 0060 <0 
#23350
pU 0 6 <2
#23380
pD 6 0 <2
#23400
pU 0 6 <4
pDDDU 6660 0006 <0 
#23450
pU 0 6 <2
#23480
pD 6 0 <2
#23500
pD 6 0 <4
pUDDD 0666 6000 <0 
#23550
pU 0 6 <2
#23580
pD 6 0 <2
#23600
pU 0 6 <4
pDUDD 6066 0600 <0 
#23650
pU 0 6 <2
#23680
pD 6 0 <2
#23700
pD 6 0 <4
pUDUD 0606 6060 <0 
#23750
pU 0 6 <2
#23780
pD 6 0 <2
#23800
pU 0 6 <4
pDUDU 6060 0606 <0 
#23850
pU 0 6 <2
#23880
pD 6 0 <2
#23900
pUDUD 0606 6060 <0 
#23950
pU 0 6 <2
#23980
pD 6 0 <2
#24000
pD 6 0 <4
pUUDU 0060 6606 <0 
#24050
pU 0 6 <2
#24080
pD 6 0 <2
#24100
pU 0 6 <4
pDUUD 6006 0660 <0 
#24150
pU 0 6 <2
#24180
pD 6 0 <2
#24200
pD 6 0 <4
pUDUU 0600 6066 <0 
#24250
pU 0 6 <2
#24280
pD 6 0 <2
#24300
pU 0 6 <4
pDUDU 6060 0606 <0 
#24350
pU 0 6 <2
#24380
pD 6 0 <2
#24400
pUDUD 0606 6060 <0 
#24450
pU 0 6 <2
#24480
pD 6 0 <2
#24500
pUUDU 0060 6606 <0 
#24550
pU 0 6 <2
#24580
pD 6 0 <2
#24600
pUUUD 0006 6660 <0 
#24650
pU 0 6 <2
#24680
pD 6 0 <2
#24700
pUUUU 0000 6666 <0 
#24750
pU 0 6 <2
#24780
pD 6 0 <2
#24800
pD 6 0 <4
#24850
pU 0 6 <2
#24880
pD 6 0 <2
#24900
pDUUU 6000 0666 <0 
#24950
pU 0 6 <2
#24980
pD 6 0 <2
#25000
pDDUU 6600 0066 <0 
#25050
pU 0 6 <2
#25080
pD 6 0 <2
#25100
pU 0 6 <4
pDDDU 6660 0006 <0 
#25150
pU 0 6 <2
#25180
pD 6 0 <2
#25200
pD 6 0 <4
pUDDD 0666 6000 <0 
#25250
pU 0 6 <2
#25280
pD 6 0 <2
#25300
pDUDD 6066 0600 <0 
#25350
pU 0 6 <2
#25380
pD 6 0 <2
#25400
pU 0 6 <4
pDDUD 6606 0060 <0 
#25450
pU 0 6 <2
#25480
pD 6 0 <2
#25500
pUDDU 0660 6006 <0 
#25550
pU 0 6 <2
#25580
pD 6 0 <2
#25600
pD 6 0 <4
pUUDD 0066 6600 <0 
#25650
pU 0 6 <2
#25680
pD 6 0 <2
#25700
pU 0 6 <4
pDUUD 6006 0660 <0 
#25750
pU 0 6 <2
#25780
pD 6 0 <2
#25800
pUDUU 0600 6066 <0 
#25850
pU 0 6 <2
#25880
pD 6 0 <2
#25900
pD 6 0 <4
pUUDU 0060 6606 <0 
#25950
pU 0 6 <2
#25980
pD 6 0 <2
#26000
pDUUD 6006 0660 <0 
#26050
pU 0 6 <2
#26080
pD 6 0 <2
#26100
pU 0 6 <4
pDDUU 6600 0066 <0 
#26150
pU 0 6 <2
#26180
pD 6 0 <2
#26200
pUDDU 0660 6006 <0 
#26250
pU 0 6 <2
#26280
pD 6 0 <2
#26300
pUUDD 0066 6600 <0 
#26350
pU 0 6 <2
#26380
pD 6 0 <2
#26400
pUUUD 0006 6660 <0 
#26450
pU 0 6 <2
#26480
pD 6 0 <2
#26500
pUUUU 0000 6666 <0 
#26550
pU 0 6 <2
#26580
pD 6 0 <2
#26650
pU 0 6 <2
#26680
pD 6 0 <2
#26700
pD 6 0 <4
#26750
pU 0 6 <2
#26780
pD 6 0 <2
#26800
pDUUU 6000 0666 <0 
#26850
pU 0 6 <2
#26880
pD 6 0 <2
#26900
pDDUU 6600 0066 <0 
#26950
pU 0 6 <2
#26980
pD 6 0 <2
#27000
pU 0 6 <4
pDDDU 6660 0006 <0 
#27050
pU 0 6 <2
#27080
pD 6 0 <2
#27100
pUDDD 0666 6000 <0 
#27150
pU 0 6 <2
#27180
pD 6 0 <2
#27200
pD 6 0 <4
pUUDD 0066 6600 <0 
#27250
pU 0 6 <2
#27280
pD 6 0 <2
#27300
pU 0 6 <4
pDUUD 6006 0660 <0 
#27350
pU 0 6 <2
#27380
pD 6 0 <2
#27400
pUDUU 0600 6066 <0 
#27450
pU 0 6 <2
#27480
pD 6 0 <2
